Model evaluation
# -------------------------

loss: 6.139749962158203
policy_loss: 5.888853073120117
value_loss: 0.2508872449398041
policy_accuracy: 0.002529999939724803
value_accuracy: 0.4282500147819519

Model summary
# -------------------------

Model: "model"
__________________________________________________________________________________________________
Layer (type)                    Output Shape         Param #     Connected to                     
==================================================================================================
board (InputLayer)              [(None, 19, 19, 8)]  0                                            
__________________________________________________________________________________________________
conv2d (Conv2D)                 (None, 19, 19, 32)   2336        board[0][0]                      
__________________________________________________________________________________________________
conv2d_1 (Conv2D)               (None, 19, 19, 32)   9248        conv2d[0][0]                     
__________________________________________________________________________________________________
conv2d_2 (Conv2D)               (None, 19, 19, 32)   9248        conv2d_1[0][0]                   
__________________________________________________________________________________________________
conv2d_3 (Conv2D)               (None, 19, 19, 32)   9248        conv2d_2[0][0]                   
__________________________________________________________________________________________________
conv2d_4 (Conv2D)               (None, 19, 19, 32)   9248        conv2d_3[0][0]                   
__________________________________________________________________________________________________
conv2d_5 (Conv2D)               (None, 19, 19, 32)   9248        conv2d_4[0][0]                   
__________________________________________________________________________________________________
conv2d_6 (Conv2D)               (None, 19, 19, 1)    289         conv2d_5[0][0]                   
__________________________________________________________________________________________________
flatten (Flatten)               (None, 361)          0           conv2d_6[0][0]                   
__________________________________________________________________________________________________
flatten_1 (Flatten)             (None, 11552)        0           conv2d_5[0][0]                   
__________________________________________________________________________________________________
policy (Dense)                  (None, 361)          130682      flatten[0][0]                    
__________________________________________________________________________________________________
value (Dense)                   (None, 1)            11553       flatten_1[0][0]                  
==================================================================================================
Total params: 191,100
Trainable params: 191,100
Non-trainable params: 0
__________________________________________________________________________________________________