epoch;loss;policy_accuracy;policy_loss;val_loss;val_policy_accuracy;val_policy_loss;val_value_accuracy;val_value_loss;value_accuracy;value_loss
0;2.582265213470459;0.00676;5.6968174;2.554236797027588;0.00755;5.8201795;0.64065;0.23350006;0.60183;0.24053836
1;2.4783976400756837;0.01081;5.5624228;2.410000527496338;0.01472;5.5291634;0.64478;0.2247463;0.61729;0.23282348
2;2.3284132388305663;0.03531;5.1086845;2.2707587677001952;0.05024;4.979268;0.64556;0.22646545;0.62434;0.22915252
3;2.192002646560669;0.07342;4.634036;2.1502236892700197;0.08665;4.551078;0.64711;0.22558643;0.62604;0.22768326
4;2.1388870161437987;0.10606;4.4724135;2.1209837338256836;0.12397;4.4699793;0.64482;0.22659522;0.62475;0.22853367
5;2.073570600967407;0.16098;4.25377;2.0893746521759033;0.17793;4.2893806;0.64463;0.23060594;0.62619;0.2274003
6;2.001284246139526;0.21544;3.9991376;1.9631473218536377;0.23306;4.0178995;0.65812;0.21837072;0.6281;0.22575721
7;1.9508613428878785;0.24656;3.784797;1.9647593682098388;0.25422;3.8733582;0.64662;0.22533108;0.62885;0.22587742
8;1.9055246865844726;0.26946;3.5960722;3.096021745376587;0.00741;5.885078;0.62809;0.37186497;0.62965;0.22510712
9;1.8721623579788207;0.28796;3.4421215;1.9155531553268432;0.26554;3.7621648;0.65298;0.22109568;0.62899;0.22487842
10;1.8418244598770142;0.30491;3.291878;1.8864269146728516;0.26811;3.6648123;0.65545;0.21944289;0.62915;0.22524123
11;1.8088732947540282;0.31867;3.1728275;1.9361590575027465;0.26194;3.7307272;0.64007;0.22691743;0.63117;0.22372697
0;1.9358759856033325;0.25792;3.7531197;1.861239862136841;0.29237;3.5510113;0.65464;0.21960546;0.62696;0.22604579
1;1.876713272781372;0.27922;3.4928172;1.887779275932312;0.28997;3.4470959;0.64104;0.22945209;0.62776;0.22510168
2;1.8379236066436768;0.29764;3.30928;1.8321331771850586;0.29864;3.356701;0.65349;0.22167906;0.62791;0.22494878
3;1.8011176049423219;0.31482;3.1440938;1.8462377435302735;0.28396;3.3535438;0.64766;0.22468391;0.62955;0.22399688
4;1.7743810640716553;0.33266;3.0135427;1.8561394223785401;0.29127;3.3311005;0.64658;0.22734146;0.62936;0.22381207
5;1.7539524215698241;0.34535;2.9097066;1.8407693061447143;0.28857;3.3559701;0.65144;0.223032;0.62938;0.22365017
6;1.7376996570968628;0.35641;2.821354;1.9096527536392212;0.28257;3.4262612;0.64184;0.23317789;0.62996;0.22338635
7;1.7198681813812255;0.36975;2.7375681;1.8266238277816773;0.28568;3.381761;0.65576;0.21842344;0.63106;0.22267334
8;1.7040025161743164;0.38038;2.666931;1.8343643790817261;0.29251;3.365548;0.65634;0.220238;0.63141;0.22223626
9;1.6887971732330322;0.38859;2.606605;1.842615209312439;0.29618;3.3638663;0.65177;0.22157574;0.6339;0.2213192
10;1.6777404640960694;0.39768;2.5544395;1.904321848716736;0.28432;3.431912;0.64836;0.23093976;0.63398;0.22084145
11;1.6667739445114136;0.40508;2.5054617;2.6383120711517334;0.10766;4.8592715;0.64976;0.31988558;0.63512;0.22024676
0;1.8755756914520263;0.28909;3.446488;2.0679949491882326;0.2801;4.071492;0.63958;0.23763692;0.62988;0.22444928
1;1.8309042275238037;0.30954;3.237903;1.8428294729614259;0.31193;3.2184343;0.6428;0.22752747;0.63042;0.22389446
2;1.787081919631958;0.32762;3.0672557;1.8132873183059692;0.31698;3.1672335;0.65457;0.22413509;0.633;0.2226867
3;1.7621345631790162;0.34164;2.9513714;1.8296178741455078;0.30932;3.1834462;0.64996;0.22541177;0.63241;0.22236776
4;1.7431925062942506;0.35469;2.8438017;1.7723732706451416;0.30522;3.1653404;0.66166;0.21524239;0.63305;0.22205201
5;1.7141848752593993;0.37045;2.7333367;1.823383623085022;0.29027;3.3204036;0.6573;0.21943653;0.63488;0.22094455
6;1.696433525505066;0.37998;2.6497886;1.8628959172058106;0.2932;3.3014793;0.64356;0.22777425;0.63442;0.22066705
7;1.6796836838150024;0.38967;2.5844433;1.8207390017318725;0.2974;3.239508;0.65467;0.22139539;0.63772;0.219506
8;1.6669828551864625;0.39995;2.5288417;1.8379415409088136;0.3031;3.285058;0.65122;0.22244176;0.63868;0.21875364
9;1.6560382610702515;0.40763;2.4864984;3.3309433641815187;0.00145;5.912636;0.585;0.41475874;0.64168;0.21761337
10;1.6606230917739868;0.41052;2.461583;1.825376947746277;0.29639;3.3159606;0.65785;0.216532;0.64086;0.21792316
11;1.6378937118911743;0.41977;2.4118211;1.8342651205062865;0.29738;3.313885;0.65189;0.217871;0.64934;0.21489011
0;1.8690557446289062;0.29585;3.3363075;1.8735703908538819;0.31375;3.1583476;0.63842;0.23328638;0.62888;0.22448288
1;1.828905587348938;0.31294;3.1780977;1.7829537210464477;0.31879;3.1131928;0.66228;0.21674936;0.6306;0.22358413
2;1.7867933854675293;0.33294;3.007022;1.7822208073425292;0.30902;3.1469193;0.6616;0.21622095;0.63131;0.22225158
3;1.7546228195953368;0.34905;2.8819258;1.777691475944519;0.31223;3.0962188;0.65911;0.21768256;0.632;0.22146815
4;1.731974236984253;0.3595;2.7922878;1.8424693119430542;0.30249;3.1634774;0.64575;0.2278529;0.63443;0.22055064
5;1.7109396145248412;0.36993;2.713845;1.799616485557556;0.31321;3.0836296;0.65218;0.22192;0.63562;0.21923284
6;1.6982467035675048;0.37781;2.6566646;1.7816462899398804;0.30753;3.1241038;0.6614;0.21596876;0.6384;0.2181807
7;1.6799952820205688;0.38526;2.601231;1.8670631284332275;0.30035;3.202693;0.64896;0.2291054;0.6441;0.21603906
8;1.6653133466339112;0.39275;2.5499856;1.8324586496734618;0.29614;3.2132063;0.64698;0.22093694;0.64846;0.21438567
9;1.64851475025177;0.40013;2.5074143;1.9369319160842895;0.28951;3.291953;0.62553;0.23763771;0.65481;0.21168914
10;1.6322240561676025;0.40498;2.477564;1.8924423846435547;0.29408;3.3104658;0.63167;0.22677304;0.66067;0.20854925
11;1.616198404121399;0.40853;2.4509542;1.9061319054794312;0.28543;3.3624983;0.64572;0.22618435;0.67054;0.2051389
0;1.868741774482727;0.30075;3.2649832;1.8141853163528443;0.32151;3.101527;0.65527;0.22066452;0.62909;0.22379531
1;1.824009486618042;0.32089;3.0939314;1.858164436302185;0.3111;3.0912309;0.64102;0.23080742;0.63071;0.22325915
2;1.7834948030090332;0.33409;2.9622672;1.7749759748458862;0.32633;3.0217392;0.65771;0.2177527;0.63276;0.22138952
3;1.7550846109008789;0.34791;2.8597813;1.8116414819717408;0.31997;3.0491912;0.6443;0.2241105;0.63496;0.2202979
4;1.735629761276245;0.35771;2.7880769;1.7826720414733888;0.31737;3.035209;0.65499;0.21843;0.63785;0.2189609
5;1.7152024476242065;0.367;2.72706;1.8789953194427491;0.30701;3.1191087;0.63312;0.23358591;0.64256;0.2166532
6;1.6963738534927368;0.37333;2.664592;1.8465705485916137;0.31204;3.0852363;0.64096;0.22778709;0.64788;0.21477042
7;1.6760677653503417;0.38233;2.6115518;1.8598328552246093;0.3096;3.1984806;0.64663;0.22489423;0.65302;0.21198161
8;1.6613912949371339;0.38755;2.5803187;1.86344523853302;0.30887;3.134479;0.64483;0.22693773;0.66136;0.20910949
0;1.8540759018707276;0.3044;3.2012384;1.819314390335083;0.30651;3.0827346;0.65091;0.22245002;0.62986;0.22348803
1;1.8043307258987427;0.32495;3.0322943;1.8137652141571046;0.31908;3.0211759;0.64635;0.22499344;0.63118;0.22211513
2;1.7707207695770264;0.33774;2.9182136;1.7548586725616455;0.32473;2.96262;0.66071;0.21617626;0.63309;0.22079045
3;1.750325824546814;0.34622;2.848282;1.784650578918457;0.32233;2.9893074;0.65629;0.22062707;0.63625;0.21940356
0;1.8189537419128419;0.31219;3.1224244;1.7645989768981933;0.33299;2.929205;0.65753;0.22042634;0.63108;0.22287683
1;1.777146492500305;0.32846;2.9731705;1.7608218841934205;0.32387;2.9749436;0.65829;0.218549;0.63368;0.2215484
2;1.751175400428772;0.34406;2.8757277;1.7851621461486817;0.32318;2.962817;0.65494;0.22388428;0.63427;0.22056168
3;1.7274734843063355;0.35607;2.7842953;1.7481533726119995;0.32425;2.9667134;0.66008;0.21601553;0.6359;0.2192966
0;1.8002687813949585;0.31687;3.065231;1.746124008255005;0.33431;2.8961875;0.65621;0.21938373;0.63113;0.22296607
1;1.7590388160705566;0.33525;2.911291;1.735461953125;0.33597;2.8993845;0.65921;0.21757257;0.63328;0.22157799
2;1.7362472482681275;0.34867;2.8136847;1.780190534477234;0.33089;2.9252043;0.6552;0.22541013;0.63376;0.22101374
3;1.7134562887573241;0.35898;2.739489;1.755769954223633;0.32813;2.9504082;0.65421;0.21903412;0.6368;0.2191688
0;1.7897424809646607;0.31756;3.03899;1.7487738458251953;0.32387;2.9892535;0.65932;0.21686994;0.63362;0.22268577
1;1.7473937615203858;0.33612;2.8950143;1.71377990814209;0.33527;2.8919919;0.66364;0.21411008;0.63731;0.22052515
2;1.721868635406494;0.35048;2.7919943;1.7431506437301636;0.32938;2.9054015;0.65464;0.21926759;0.63755;0.21963885
3;1.7010377390670777;0.3625;2.715533;1.7383181791687012;0.31397;2.9773223;0.66366;0.21496052;0.64037;0.21816544
0;1.7781027101135254;0.32025;3.0028946;1.7470853064727783;0.33472;2.8732245;0.65412;0.22166838;0.63304;0.22228034
1;1.7470671755599976;0.33559;2.8910716;1.7263083792877196;0.33014;2.8827658;0.66076;0.21710686;0.63499;0.22090666
2;1.7202329173660278;0.35184;2.7840226;1.7600346640014648;0.32676;2.9061046;0.65725;0.22269118;0.63644;0.21968584
3;1.7015460688781738;0.36243;2.7045937;1.7897155617523193;0.32656;2.9098744;0.6404;0.22796668;0.63778;0.21873045
0;1.7758756076049804;0.32155;3.0047154;1.7181153770446778;0.32643;2.904891;0.66178;0.21464962;0.63173;0.2218112
1;1.7432737337493895;0.33766;2.8751857;1.7606841929244994;0.32391;2.9814928;0.65333;0.22019349;0.63289;0.22088309
2;1.7191507009887694;0.35129;2.7822459;1.7521345321655273;0.33652;2.8582377;0.65162;0.22311749;0.63484;0.21962474
3;1.6977225746154785;0.36206;2.7027133;1.7399724800109864;0.32789;2.8819885;0.65059;0.21926074;0.63762;0.2181384
0;1.7717921123504639;0.32051;2.9793093;1.7168366602706908;0.33612;2.862351;0.65968;0.21620418;0.63294;0.22211805
1;1.7372212963485718;0.33871;2.8509934;1.7056261670684814;0.33747;2.846154;0.66257;0.21474375;0.63579;0.22077489
2;1.716544267845154;0.3512;2.76287;1.7292648458862305;0.33693;2.8405528;0.65548;0.21941885;0.63594;0.2200308
3;1.6982373167037963;0.36158;2.6872294;1.8087183935165405;0.33214;2.880124;0.63744;0.23316751;0.63755;0.2189751
0;1.7676714123535155;0.32667;2.954175;1.7076527848052978;0.34106;2.8474183;0.66252;0.21499166;0.63089;0.22236204
1;1.7329409258651733;0.34492;2.8238604;1.7202693255996704;0.33129;2.8384082;0.65756;0.21800762;0.63276;0.22102734
2;1.711819452857971;0.35606;2.7387283;1.7408112253570556;0.32759;2.9130483;0.65617;0.21880114;0.63389;0.2200856
3;1.6938591279983521;0.36686;2.6732178;1.813608788948059;0.32814;2.8967903;0.6496;0.23339699;0.63648;0.21859717
0;1.7677304397201539;0.32485;2.9481363;1.7380207400131225;0.33186;2.8670182;0.65713;0.22020425;0.63146;0.22254163
1;1.731612382850647;0.34162;2.8172727;1.7130658362579345;0.33329;2.8607104;0.66159;0.21568523;0.63381;0.2210076
2;1.7083600345993042;0.35542;2.7356732;1.7458944439697266;0.33027;2.8804474;0.65794;0.22118776;0.63538;0.21956696
3;1.689089613571167;0.36635;2.6590815;1.727859109992981;0.32753;2.9102075;0.66225;0.21582688;0.63694;0.21834011
0;1.7649393139648437;0.32602;2.9376214;1.7161811226272583;0.33825;2.8277369;0.65939;0.21759608;0.62884;0.2225527
1;1.7327689266204833;0.34257;2.8156395;1.736013252029419;0.33687;2.8237846;0.65158;0.22176696;0.63009;0.22135553
2;1.7087415879058838;0.35704;2.7216687;1.7010080415725708;0.33412;2.8343852;0.66307;0.21413966;0.63199;0.22025117
3;1.6923921334075929;0.36618;2.6542244;1.711198305091858;0.33531;2.834818;0.66071;0.21569206;0.63407;0.21925189
0;1.7585097071838378;0.32414;2.9389377;1.769564397392273;0.33979;2.816729;0.64668;0.22877091;0.63358;0.2213166
1;1.7271879119110107;0.34265;2.816689;1.7347951947784424;0.32829;2.9039598;0.6587;0.21835087;0.63537;0.22032115
2;1.7034632452392577;0.35496;2.7318115;1.7154165104293824;0.34169;2.806271;0.65695;0.21811378;0.63724;0.21877697
3;1.6870102229690551;0.3627;2.6676095;1.7556190391540527;0.3332;2.935673;0.65468;0.22034219;0.63844;0.21762407
0;1.7590367915725709;0.32771;2.9222229;1.6929875719070435;0.34298;2.7856042;0.66373;0.21459158;0.63116;0.22192624
1;1.7247939332580566;0.34441;2.792683;1.6955842120361329;0.33659;2.8047593;0.66243;0.21450661;0.6327;0.22075917
2;1.7023563471603393;0.35813;2.711143;1.8035670265960693;0.3318;2.870514;0.63708;0.23322605;0.63471;0.21945797
3;1.688265776901245;0.36535;2.6537368;1.7339125868988037;0.33488;2.8443494;0.65509;0.21967378;0.63678;0.21843444
0;1.7566756187820434;0.33019;2.911608;1.75325850025177;0.33802;2.8369532;0.64916;0.22462924;0.63022;0.2219699
1;1.7266496128845215;0.34549;2.7983305;1.7428045681762696;0.3183;2.9359858;0.65727;0.21859075;0.63159;0.22083439
2;1.7038549787902832;0.36085;2.7044756;1.7363789253616333;0.33393;2.870087;0.66202;0.21970789;0.63319;0.21990891
3;1.6862388721847534;0.36924;2.6437633;1.7308967108154296;0.33027;2.8774087;0.65437;0.21768215;0.63537;0.21834677
0;1.753641206741333;0.33201;2.9029167;1.707161708946228;0.33732;2.8245313;0.6607;0.21588212;0.63279;0.22164178
1;1.7192363396072388;0.34843;2.7762675;1.6883164976882934;0.34357;2.768465;0.66492;0.21452975;0.63486;0.22032265
2;1.6960607900619507;0.36194;2.6900127;1.7074668604278564;0.33655;2.8148046;0.6602;0.21630114;0.63624;0.21908608
3;1.6857683980941773;0.36912;2.6460633;1.705107561569214;0.34138;2.8009708;0.66155;0.21575658;0.63771;0.2182307
0;1.7500732426834107;0.33092;2.888714;1.7110268221664429;0.34379;2.7736776;0.65545;0.21872795;0.63145;0.22161984
1;1.7163961513137818;0.34798;2.767402;1.8408967002868653;0.33782;2.8008468;0.63047;0.24367493;0.63395;0.22009152
2;1.6983222133255005;0.36132;2.6903675;1.7259695009231568;0.33131;2.867003;0.65844;0.21768798;0.6349;0.21939236
3;1.6785970984268188;0.37062;2.6230838;1.7917528170394899;0.32514;2.8792946;0.64416;0.22983658;0.63907;0.2176501
0;1.7526901282119751;0.32992;2.8944938;1.690900962677002;0.34088;2.7939184;0.66399;0.21380162;0.63337;0.22180459
1;1.720840263557434;0.34668;2.77766;2.0272993958282473;0.21905;4.1333942;0.64766;0.22747095;0.63577;0.22050911
2;1.712075198135376;0.35321;2.7413106;1.6893564770507812;0.3354;2.7896335;0.66451;0.21335457;0.63643;0.21986338
3;1.6842102477264405;0.36782;2.6362548;1.7313388063812256;0.33205;2.8765023;0.65805;0.21786104;0.63839;0.21818018
0;1.7456500214385986;0.32986;2.882174;1.7624219639587402;0.31892;2.946866;0.65526;0.22193046;0.63524;0.22084495
1;1.7168779233169555;0.34584;2.7701185;1.7055260829544068;0.34408;2.7805667;0.65959;0.21715641;0.63642;0.21988079
2;1.6939768181228638;0.35839;2.6869128;1.7411242004394532;0.32972;2.8911326;0.65557;0.21964845;0.63845;0.21846564
3;1.6734964487075805;0.36992;2.6123571;1.7916938483428955;0.32857;2.8926265;0.63817;0.22929049;0.64081;0.2170095
0;1.7468959817123413;0.33145;2.877716;1.6931492625808715;0.35021;2.7539806;0.66249;0.21585241;0.6334;0.22132759
1;1.7137533568954468;0.34684;2.759921;1.7117588336181642;0.33899;2.770195;0.65591;0.21905999;0.63552;0.21976958
2;1.6979709858703613;0.35544;2.6979327;1.7302029879760743;0.34598;2.76039;0.65869;0.22271943;0.63696;0.21892464
3;1.6776991204452514;0.36959;2.6202173;1.708657058029175;0.34145;2.7802072;0.65798;0.21714738;0.63902;0.21751542
0;1.7466261734390258;0.33278;2.875234;1.7130050346374512;0.3433;2.7983994;0.66045;0.21802387;0.63316;0.22130199
1;1.7133396129608154;0.35056;2.7493746;1.6806336335372924;0.34555;2.756013;0.6633;0.21343213;0.63388;0.22014372
2;1.691506778678894;0.36312;2.675852;1.7035952996826171;0.34427;2.7609568;0.65769;0.21759218;0.63659;0.21866868
3;1.6758411652374268;0.37123;2.610327;1.718765894050598;0.3386;2.8426726;0.65628;0.2168059;0.63883;0.21770643
0;1.7437767022705077;0.33018;2.8690455;1.6974803540039063;0.34686;2.746872;0.65939;0.21707891;0.63316;0.22109841
1;1.710879566116333;0.34934;2.7472079;1.6867729907226563;0.34227;2.7781768;0.66359;0.21383056;0.63455;0.21980284
2;1.6898853672790528;0.36001;2.668076;1.697000659942627;0.34233;2.8001962;0.66309;0.21473879;0.63662;0.21868595
3;1.6728075554656983;0.37091;2.6059961;1.7923295219421387;0.33757;2.8171945;0.64051;0.23260655;0.63986;0.21732368
0;1.7434824978637695;0.33365;2.8695414;1.7082666319274902;0.34445;2.753787;0.65601;0.21901968;0.63305;0.22109632
0;2.1086138576507567;0.33551;2.8428302;2.031011541633606;0.35289;2.719984;0.66511;0.21375217;0.63311;0.22091645
1;2.059033113937378;0.35177;2.7192793;2.031464628982544;0.34608;2.7198231;0.66187;0.21338728;0.63464;0.21979874
2;2.0213482411193846;0.36656;2.6241882;2.051443805732727;0.34693;2.7413652;0.66025;0.21536355;0.63679;0.21862622
3;1.989540795288086;0.38201;2.539047;2.081137282028198;0.346;2.7722423;0.65735;0.21856914;0.63756;0.21773674
0;2.1111947344970705;0.33711;2.8182774;2.0510893955230713;0.34695;2.7424636;0.66197;0.21464565;0.63136;0.22160792
1;2.0558971757507325;0.35508;2.6886811;2.0706161772918703;0.33387;2.7974813;0.66237;0.21424212;0.63452;0.22002058
2;2.017920814971924;0.37066;2.5938077;2.062930246810913;0.34494;2.723174;0.65358;0.21803619;0.63589;0.21897587
3;1.983623658180237;0.38152;2.514932;2.089457619552612;0.35132;2.717494;0.64949;0.22361276;0.63939;0.21710773
0;2.083047200088501;0.34783;2.7508855;1.9948576586914062;0.36524;2.598647;0.66508;0.21269819;0.63527;0.2196265
1;2.0428140007781983;0.3604;2.6648834;1.9856596925735475;0.3669;2.5848017;0.66459;0.2120833;0.63766;0.21808827
2;2.0154547681427;0.36734;2.6108572;1.9832318324279785;0.36835;2.5807216;0.66481;0.21210094;0.63955;0.21669051
3;1.9898945687866212;0.37433;2.5632217;1.9842833299255371;0.36759;2.584375;0.66311;0.21219154;0.64265;0.21511993
0;2.0589302131652834;0.35541;2.7056208;1.9764408967208862;0.37281;2.5622122;0.66432;0.2124942;0.63731;0.21893847
1;2.027640531196594;0.36439;2.6434264;1.9793652561187745;0.37037;2.5788968;0.6651;0.21196626;0.63971;0.21730024
2;2.001761762313843;0.37138;2.5941665;1.9828297975921632;0.36882;2.5729086;0.66291;0.21337879;0.64256;0.21578753
3;1.9775472910308838;0.3775;2.5504298;1.97422701171875;0.3713;2.5679748;0.6632;0.21197414;0.64566;0.21414079
0;2.0504562372589112;0.35759;2.6832626;1.9668103554153442;0.37284;2.5530655;0.66665;0.21173573;0.63469;0.21951981
1;2.0182276961517336;0.36671;2.6177351;1.9689694356918335;0.37109;2.5606182;0.66576;0.21175468;0.63712;0.21795009
2;1.993153853149414;0.37428;2.5692387;1.967727110595703;0.37385;2.5586953;0.6656;0.21175228;0.63979;0.21651648
3;1.9689810749435426;0.38076;2.5282044;1.976432294807434;0.37022;2.5679529;0.66346;0.21300551;0.6433;0.21458036
0;2.0516381114196776;0.35598;2.6914992;1.962556229133606;0.37354;2.5417063;0.66549;0.21224132;0.63427;0.21966825
1;2.0195199604797365;0.36482;2.6244404;1.9597348008346558;0.37435;2.5437918;0.66608;0.21158059;0.63665;0.21818827
2;1.9934951449584961;0.37279;2.5757663;1.9595523384094238;0.37364;2.5438678;0.66563;0.21162838;0.63905;0.21653546
3;1.9710957643127442;0.3781;2.5343742;1.965840442428589;0.37299;2.5537248;0.66444;0.2122625;0.64281;0.21499589
0;2.0331219511413576;0.35788;2.662129;1.9545166642761231;0.37633;2.5340314;0.66613;0.21150729;0.63891;0.2183923
1;2.000574340209961;0.36869;2.5954618;1.9628055742645263;0.37261;2.5442362;0.664;0.21261926;0.64161;0.21677476
2;1.9744388538360595;0.37617;2.5476184;1.9580156083679199;0.3748;2.5451386;0.66451;0.21155156;0.64532;0.214987
3;1.9564292176055909;0.37889;2.5269883;1.9640118770980834;0.37398;2.5412405;0.66159;0.21320827;0.64959;0.21272554
0;2.033096059875488;0.35965;2.6574616;1.9514377528762816;0.37569;2.5274937;0.66646;0.21166745;0.63631;0.21907525
1;1.9990834990310669;0.36863;2.5903149;1.9476432732391358;0.37614;2.5239332;0.66617;0.21122006;0.63994;0.21715565
2;1.9710285403823853;0.37664;2.5396988;1.9513372480773925;0.37567;2.5316432;0.66535;0.21147054;0.6436;0.21515214
3;1.9470545077896118;0.38268;2.5010126;1.9664491746139527;0.3734;2.5417523;0.66237;0.21401711;0.64769;0.21305197
0;2.0317956768798826;0.36109;2.6530786;1.9549346586608887;0.37675;2.5235174;0.66359;0.213074;0.63458;0.21945186
1;1.9969736612701416;0.36934;2.5876043;1.9462114519882203;0.37907;2.5157886;0.66583;0.21184945;0.63923;0.21721989
2;1.9719653102874757;0.37748;2.5432546;1.9500252420425415;0.37458;2.5272503;0.6658;0.21180245;0.64262;0.21538107
3;1.9436342346191406;0.38221;2.4998174;1.964173659362793;0.37307;2.5407088;0.6605;0.2138501;0.64922;0.21265738
0;2.026486145172119;0.36094;2.643138;1.9468971309661864;0.37829;2.5191104;0.66547;0.21187574;0.63629;0.21931565
1;1.9904995392608642;0.37177;2.5789611;1.9429737222671508;0.38042;2.5146518;0.66536;0.21143833;0.64041;0.21668173
2;1.9636530239868164;0.37684;2.532782;1.9483525666427612;0.37714;2.515212;0.6636;0.21261883;0.64523;0.2145908
3;1.934588916244507;0.38491;2.491402;1.9607624311447143;0.37369;2.5265818;0.65756;0.21443044;0.65149;0.2115282
0;2.0246367306518556;0.3626;2.6373994;1.9457553255081177;0.3796;2.5146382;0.66494;0.21217081;0.63564;0.21960035
1;1.9902349245071411;0.37133;2.572458;1.940586195373535;0.37884;2.5111005;0.66596;0.21138853;0.63904;0.21735041
2;1.9618236641693114;0.37882;2.5219471;1.9474492651367188;0.37536;2.517994;0.66343;0.21237636;0.64265;0.21525094
3;1.9366382947921752;0.38477;2.4853342;1.9537623838043212;0.37683;2.5285254;0.66093;0.21290189;0.64918;0.21264896
0;2.0204991429519654;0.36411;2.628786;1.938039107170105;0.37926;2.5027614;0.66653;0.21161574;0.63573;0.21953736
1;1.984920651321411;0.37437;2.5615623;1.952427204170227;0.38002;2.5059078;0.66205;0.21461149;0.63957;0.21726242
2;1.9576262258529664;0.38208;2.5122082;1.9448872340393066;0.37833;2.519163;0.66543;0.21187884;0.64408;0.21527302
3;1.9302162631988526;0.38824;2.471445;1.953928876838684;0.37619;2.5352938;0.66357;0.21254534;0.65016;0.21254367
0;2.020876809768677;0.36366;2.624222;1.938042335472107;0.38039;2.4931269;0.66519;0.21257392;0.63297;0.22016023
1;1.9865312349700928;0.37323;2.5550587;1.9417806578445436;0.37964;2.508642;0.66519;0.2121901;0.63553;0.21830101
2;1.9588746868896485;0.3814;2.5095906;1.9492425580978394;0.37799;2.5176628;0.66358;0.2131214;0.64131;0.21595576
3;1.9331293923568726;0.38613;2.470036;1.950720798110962;0.37752;2.5128922;0.66373;0.21383272;0.64732;0.21345665
0;2.02044113117218;0.3646;2.6298757;1.938115807533264;0.38142;2.5055246;0.66586;0.21171734;0.63401;0.21975455
1;1.9848900727844239;0.37329;2.5619562;1.9368011470794677;0.38123;2.4991353;0.66531;0.21200696;0.63729;0.21752137
2;1.9565579176330565;0.37931;2.5139692;1.9434760055923461;0.3795;2.5120513;0.66534;0.2124518;0.64242;0.21519408
3;1.929292048034668;0.3857;2.4736967;1.9548758688354493;0.37865;2.5240617;0.66063;0.21397078;0.64949;0.2124336
0;2.0173968842697145;0.36561;2.6223319;1.9403996380233766;0.38174;2.5017729;0.66548;0.21265116;0.63417;0.21981002
1;1.9812464307022095;0.37427;2.5543969;1.9415378633499145;0.37951;2.509415;0.66544;0.21233153;0.63853;0.21743259
2;1.9539029824066163;0.38075;2.507989;1.9475552600479127;0.37748;2.502816;0.65995;0.21423541;0.64298;0.21519873
3;1.925035397415161;0.38763;2.4665253;1.9527214904785157;0.37689;2.5227234;0.66285;0.21371056;0.64944;0.21222958
0;2.0123023826599122;0.36426;2.6154313;1.9407004389572144;0.38122;2.5012608;0.66547;0.21288604;0.63522;0.21938159
1;1.9757736894226074;0.37366;2.5475698;1.9382922343063353;0.38097;2.5034273;0.6651;0.21220833;0.63973;0.21692447
2;1.9464846773147584;0.38193;2.4938023;1.9480001438140868;0.37939;2.5080793;0.66366;0.21399687;0.64387;0.21483438
3;1.920390149383545;0.38667;2.4588954;1.9533246925354004;0.3755;2.522093;0.65961;0.21401007;0.65058;0.2119176
0;2.0573154025268554;0.36607;2.6228712;1.9718163919067382;0.38289;2.4819095;0.66656;0.21200845;0.63491;0.21912493
1;2.0415152252197264;0.36886;2.5948944;1.9684529426193238;0.38434;2.4749596;0.66647;0.21185231;0.6383;0.2179591
2;2.032964593963623;0.37102;2.579797;1.965773278541565;0.38589;2.4718685;0.66672;0.21153542;0.63907;0.21736288
3;2.025893407058716;0.37245;2.5671427;1.9646461083984375;0.38527;2.4693968;0.66645;0.21150137;0.63994;0.21684487
0;2.044337183609009;0.36843;2.601177;1.9617923920059204;0.38656;2.4638553;0.66726;0.2113433;0.63854;0.21811323
1;2.03495626411438;0.37084;2.5839443;1.9602980158996581;0.38714;2.4616163;0.6672;0.21121448;0.63973;0.21747549
2;2.029001255187988;0.37188;2.5747154;1.9598579369735718;0.38735;2.4610054;0.66686;0.21118154;0.64033;0.21695651
3;2.021118913269043;0.37397;2.5608673;1.958525938873291;0.38759;2.4594693;0.6676;0.21102822;0.64143;0.2163883
0;2.0404765808105467;0.36998;2.583011;1.9571883742141725;0.38768;2.4549518;0.66756;0.21111308;0.63481;0.21875039
1;2.0323550159835815;0.37217;2.5700145;1.955891439781189;0.38825;2.4535348;0.66774;0.21096021;0.63577;0.2180542
2;2.026063891983032;0.37413;2.5590587;1.9559420587539673;0.38828;2.4547417;0.66725;0.21088804;0.63727;0.21762033
3;2.0185158596801758;0.37566;2.5456836;1.9552194493103028;0.38858;2.4528773;0.66743;0.21088813;0.6381;0.2170681
0;2.0390272663116455;0.36775;2.5849562;1.9539319157028199;0.38874;2.4501743;0.66804;0.21084066;0.63635;0.21832466
1;2.0313385254669187;0.3692;2.5738237;1.9535171964263915;0.38865;2.4490466;0.66789;0.2108537;0.63844;0.21760377
2;2.0245932971191407;0.37213;2.5620887;1.95298383934021;0.38818;2.4489648;0.66737;0.21075933;0.6392;0.21709864
3;2.0183497082901;0.37344;2.5494454;1.9534021350479125;0.38803;2.449315;0.66717;0.21083012;0.64006;0.21676247
0;2.029592703781128;0.37175;2.5662076;1.9519212915420532;0.38875;2.4457579;0.6676;0.21080604;0.63853;0.21784332
1;2.0215327651977537;0.37523;2.5538332;1.9512975300598145;0.38856;2.4447393;0.66749;0.21076667;0.63988;0.21715058
0;2.030169797439575;0.37162;2.5617275;1.9507198247528077;0.38909;2.4424617;0.66763;0.2108341;0.63591;0.21835805
1;2.0215018198394774;0.37517;2.546703;1.9498737175369263;0.38932;2.44219;0.66786;0.2106858;0.63749;0.21771532
2;2.0161161658477784;0.37692;2.5360103;1.950449571685791;0.38935;2.4435735;0.6677;0.21071027;0.63844;0.21743605
3;2.010354586868286;0.37668;2.5288343;1.9498044651031494;0.38959;2.4428928;0.66782;0.21063806;0.6393;0.21678232
4;2.0044527393341065;0.37798;2.5190108;1.9509562900161743;0.38796;2.4448476;0.66731;0.210742;0.64112;0.216312
0;2.0230535527038573;0.37227;2.5573504;1.9487250268173217;0.38918;2.4403272;0.66765;0.21063502;0.64123;0.21724114
1;2.0163280572891233;0.37572;2.5452964;1.9490625835037232;0.38885;2.442067;0.66812;0.21058068;0.64159;0.2167582
2;2.0089821230697633;0.37529;2.5330722;1.9485525201797484;0.38907;2.441045;0.66783;0.21056518;0.64256;0.21616842
3;2.0034874268341065;0.37789;2.5241222;1.9490148279190063;0.38897;2.443408;0.66798;0.21048643;0.64341;0.21574087
4;1.9969240326690674;0.37902;2.5131526;1.9504241278457641;0.38867;2.4434266;0.66706;0.210796;0.64465;0.2151986
0;2.02749533744812;0.37197;2.5598142;1.94842572807312;0.38934;2.438592;0.66787;0.21076082;0.63767;0.21804853
1;2.018225445404053;0.37439;2.5435889;1.9477532618713378;0.39004;2.4376314;0.66793;0.21070597;0.63877;0.21737418
2;2.011491246261597;0.37593;2.5317125;1.947543550643921;0.38955;2.4381807;0.66738;0.21062762;0.63921;0.21687056
3;2.005792606048584;0.3776;2.5243764;1.9477088601684571;0.38936;2.4383767;0.66756;0.21065494;0.6402;0.21626382
0;2.028365947189331;0.37024;2.5671384;1.9479531302261353;0.38953;2.4370592;0.66736;0.2108228;0.63902;0.217712
1;2.019926529350281;0.37475;2.5503035;1.9462754851913453;0.3895;2.4365842;0.66764;0.21051219;0.63954;0.217229
2;2.0154899544143676;0.37506;2.5451999;1.9461389935684204;0.38945;2.4363337;0.6675;0.21051352;0.64075;0.21670818
3;2.0089866036605835;0.37857;2.5334222;1.9468143227005006;0.38937;2.4376187;0.66746;0.21056396;0.64155;0.21626422
4;2.002434836425781;0.37798;2.5221682;1.9477774215316772;0.38901;2.4365752;0.66729;0.21085906;0.64272;0.21577443
0;2.0270675230407713;0.37253;2.563881;1.947642691040039;0.39034;2.4343708;0.66686;0.21102016;0.63771;0.21773762
1;2.019818508453369;0.3748;2.5504477;1.9458380053710937;0.39021;2.4351985;0.66789;0.2105793;0.63864;0.21727328
2;2.0123107090759276;0.3771;2.537595;1.9453923392868042;0.39002;2.434802;0.66764;0.2105248;0.63946;0.21669087
3;2.0065455520629882;0.37748;2.5285654;1.9452801942062379;0.38994;2.4355676;0.66773;0.21045071;0.64054;0.21620461
4;2.001113483581543;0.37868;2.5209963;1.945431276397705;0.38975;2.4352179;0.66761;0.21051833;0.64177;0.21565503
0;2.022979497299194;0.3743;2.5547755;1.9445482540893555;0.39045;2.432103;0.66802;0.21058668;0.63866;0.21763954
1;2.0150753917694093;0.37677;2.5422935;1.9431591054534911;0.38952;2.4319482;0.6681;0.21031372;0.63994;0.2169712
2;2.0075581971359253;0.37775;2.5288253;1.9429978616333008;0.3896;2.4317086;0.66778;0.21030906;0.64025;0.21640015
3;2.0028880697250364;0.37974;2.5215113;1.9432915538787843;0.38981;2.4329312;0.66786;0.21028672;0.6414;0.21600209
4;1.9980526264953613;0.38032;2.5143802;1.9438394275283815;0.38946;2.4338996;0.66744;0.21033682;0.64235;0.21557903
0;2.0225768574523926;0.37342;2.546994;1.9428502833557129;0.3896;2.4297907;0.66776;0.2104622;0.63673;0.21821274
1;2.0147427459716796;0.37502;2.5355563;1.943304998664856;0.38945;2.4295015;0.66765;0.21059455;0.6379;0.21744658
2;2.008276393737793;0.37841;2.5223207;1.9429030136489869;0.38928;2.4291854;0.66767;0.21054265;0.6384;0.2171252
3;2.0021536531066895;0.37957;2.51321;1.9425206245422364;0.38927;2.430418;0.6675;0.21037424;0.6391;0.21655506
4;1.9967711935424806;0.37993;2.505262;1.9435127996063233;0.38952;2.431597;0.66738;0.21050072;0.64062;0.21606235
0;2.024844687652588;0.37429;2.5537426;1.9417068935775756;0.39063;2.4268217;0.66748;0.21050087;0.63786;0.21822491
1;2.015861297492981;0.37717;2.5376797;1.941206762161255;0.39129;2.42846;0.6678;0.21027464;0.63837;0.2175537
2;2.0102501387023928;0.37796;2.5277696;1.9409922704315186;0.39149;2.4288518;0.66776;0.2102082;0.63917;0.21717903
3;2.0045485079956054;0.38112;2.5179236;1.9413443389892577;0.39047;2.4300053;0.66764;0.21020043;0.63969;0.21671927
4;1.9984641180419922;0.38114;2.5087752;1.9419018745803833;0.39106;2.4305973;0.66742;0.21028231;0.64129;0.2161815
0;2.024512017059326;0.37456;2.5485055;1.9415308860778808;0.39072;2.4271777;0.66751;0.21048532;0.63542;0.21859033
1;2.0166818367767334;0.37768;2.535517;1.9406682258987427;0.39093;2.4256341;0.66779;0.21043156;0.63659;0.21796192
2;2.0097741193008423;0.37797;2.5229177;1.940951730155945;0.39115;2.4271789;0.66805;0.21038081;0.63742;0.21749304
3;2.0054264373397825;0.37961;2.516484;1.941046963157654;0.39106;2.4278846;0.66782;0.21035482;0.63841;0.21707305
4;1.9980158962249757;0.38118;2.5061667;1.9431519034957885;0.39025;2.4293382;0.66691;0.21069618;0.6398;0.21635847
0;2.0199242044067383;0.37509;2.544457;1.9406070673751832;0.39102;2.4258235;0.66802;0.21044222;0.63826;0.21798013
1;2.011278685684204;0.37761;2.529422;1.9407381917190552;0.39074;2.4258788;0.66771;0.21047299;0.63932;0.21735974
2;2.0055512659454346;0.37979;2.5205066;1.9404615923690796;0.39115;2.4258618;0.66755;0.21042748;0.64002;0.21682349
3;1.9991890168380737;0.37995;2.51024;1.9409878396987914;0.3905;2.4272602;0.66741;0.21043883;0.64106;0.21629897
4;1.9931895425415038;0.38103;2.501378;1.9418393725585938;0.39081;2.4309464;0.66715;0.21033621;0.64225;0.21574208
0;2.0190879605484007;0.37362;2.554075;1.9397676467895508;0.39062;2.4247732;0.66771;0.21039201;0.64122;0.21709056
1;2.0106631175231935;0.37525;2.5402849;1.9391731266784669;0.39088;2.4237695;0.66794;0.21035519;0.64234;0.21641389
2;2.0034827879333497;0.37718;2.527067;1.9385839778137206;0.39034;2.423082;0.66763;0.21029295;0.6428;0.21592455
3;1.9980902917861938;0.37796;2.5183833;1.9390308150100708;0.39063;2.424063;0.66779;0.21031964;0.64348;0.21547079
4;1.992911658935547;0.37834;2.51134;1.9400187459182738;0.39078;2.4257386;0.66744;0.21040529;0.64506;0.21496299
0;2.0171173279571533;0.37462;2.5457983;1.9371360702896119;0.39115;2.420604;0.66814;0.2102064;0.63861;0.21736556
1;2.0088571125793457;0.37556;2.5318348;1.9374070891189574;0.3915;2.421428;0.66786;0.21020928;0.6397;0.2167153
2;2.00353516204834;0.37713;2.5235653;1.9376166801834107;0.39131;2.422854;0.66769;0.21015093;0.64053;0.21627776
3;1.9971313612747192;0.3788;2.5125432;1.9377790826797485;0.39146;2.4217763;0.66758;0.21027634;0.64154;0.21576393
4;1.9901977698516846;0.38034;2.4997334;1.9380268968963623;0.39227;2.4230974;0.66731;0.21023478;0.64262;0.2153451
0;2.0111247332000732;0.37584;2.5389152;1.9382494081115722;0.39191;2.419325;0.66764;0.21058536;0.64186;0.21668723
1;2.00245636390686;0.37886;2.5244215;1.9370450094604492;0.39152;2.420603;0.66773;0.21023937;0.64278;0.21601015
2;1.995512950706482;0.37982;2.5122485;1.93643928730011;0.39171;2.4200087;0.6675;0.21016565;0.64399;0.21547782
3;1.9901616010284424;0.38153;2.504371;1.937435552635193;0.3916;2.4218044;0.66733;0.21024434;0.64427;0.21496223
4;1.9854843002319336;0.38294;2.497288;1.9376239263153077;0.39184;2.4213002;0.66747;0.21033171;0.64526;0.21456197
0;2.022335216293335;0.37302;2.5568106;1.938076156539917;0.39215;2.4197726;0.66796;0.21056141;0.63763;0.2177331
1;2.013405566520691;0.37668;2.5391252;1.9376726848602295;0.39222;2.4190853;0.66805;0.21053863;0.63839;0.21720842
2;2.00702449508667;0.37779;2.5303562;1.9382009223937988;0.392;2.4199607;0.66819;0.2105883;0.63985;0.21658173
3;2.0003890423202515;0.38036;2.517926;1.9380262735366822;0.39176;2.4208314;0.66767;0.21049295;0.64079;0.21610431
4;1.9956469721984864;0.38076;2.5122304;1.9388025681304932;0.39195;2.4223409;0.6678;0.2105472;0.6417;0.21558273
0;2.0123571551895143;0.37758;2.5344734;1.936881086616516;0.39179;2.4188786;0.66805;0.21042095;0.63931;0.21737553
1;2.0044579567718506;0.37996;2.5211313;1.9362539264678955;0.39248;2.4179368;0.66811;0.21037073;0.64078;0.21676579
2;1.9974310800933839;0.38202;2.5074863;1.936065669593811;0.39127;2.41893;0.6677;0.21026376;0.64123;0.2163706
3;1.9925180228042603;0.38267;2.4995866;1.9366402344512939;0.3918;2.419355;0.66793;0.21035804;0.64174;0.21593243
4;1.9862617725753784;0.38557;2.4900646;1.9375086139678954;0.39193;2.4212785;0.66745;0.21039924;0.64277;0.21536802
0;2.0171335372161865;0.37594;2.5391908;1.9423511741638184;0.39182;2.4226093;0.66661;0.21133833;0.63615;0.21809795
0;2.0154408028793336;0.3769;2.5390828;1.9362909812164306;0.39164;2.4158893;0.66761;0.21058275;0.63728;0.21771394
1;2.0129069651031495;0.37702;2.5360284;1.9351162789154053;0.39218;2.414922;0.66782;0.21041039;0.63796;0.217452
2;2.0103354627227783;0.37842;2.5305986;1.9348527975463867;0.39188;2.4146302;0.6681;0.21037695;0.63778;0.21731631
3;2.0093119483947754;0.37886;2.5287528;1.9347114133071899;0.39208;2.4141867;0.66763;0.21038501;0.63843;0.21725172
4;2.008206965408325;0.37867;2.526971;1.9345324369812011;0.39227;2.4149067;0.6679;0.21029064;0.63883;0.21717487
0;2.0169906100463866;0.37421;2.549128;1.9343594158554076;0.39183;2.4142873;0.66785;0.21030554;0.63887;0.21731296
1;2.014496603317261;0.37382;2.5434418;1.9337256023025513;0.39192;2.4137769;0.66817;0.21021256;0.63914;0.21721303
2;2.011595382461548;0.37394;2.5390673;1.9333826010894775;0.39233;2.4134898;0.66817;0.21016352;0.63971;0.21695685
3;2.0105825310134886;0.37504;2.5379667;1.9334611862945557;0.39165;2.414436;0.66833;0.21010727;0.63929;0.21677865
4;2.009779210128784;0.37482;2.5353658;1.932928346633911;0.39203;2.4134927;0.66809;0.21006988;0.63994;0.2168503
0;2.0078284314727783;0.37696;2.535358;1.9324739484405518;0.39221;2.4130826;0.66828;0.2100078;0.64337;0.21641192
1;2.0058597330474854;0.37782;2.5312946;1.9320165501785278;0.39233;2.4128058;0.66834;0.20993374;0.64358;0.21632938
2;2.0045842288970945;0.37754;2.5296416;1.9319050918960572;0.39212;2.41286;0.66809;0.20990704;0.64436;0.21619202
3;2.0034040636825563;0.37824;2.526296;1.9318012216186524;0.39256;2.4124372;0.66831;0.20991994;0.64332;0.21620126
4;2.0009440129852294;0.37829;2.5241299;1.9317291438674926;0.39271;2.4127963;0.66837;0.20987733;0.64424;0.21588235
0;2.0138783880615234;0.3767;2.5357468;1.932195140991211;0.39212;2.4124265;0.66817;0.21000825;0.63647;0.21767792
1;2.012045806274414;0.37737;2.5315707;1.9322542510604859;0.39292;2.4124215;0.66827;0.21002242;0.63682;0.21764973
2;2.009345029449463;0.37875;2.5260997;1.932288243560791;0.39244;2.4127746;0.66829;0.21000345;0.63682;0.21748924
3;2.0089115799713135;0.37845;2.5251625;1.9321662346649169;0.39282;2.412497;0.66836;0.21000102;0.63657;0.21745615
4;2.0079780420684816;0.37905;2.5239813;1.9319439246368408;0.39324;2.4122188;0.66821;0.20997709;0.6369;0.21739306
0;2.0098462605285645;0.37537;2.5345201;1.93196408908844;0.3923;2.4122448;0.66809;0.20998098;0.64053;0.2169579
1;2.0089997350311277;0.37519;2.5339797;1.931617670059204;0.39219;2.4115145;0.66819;0.20996675;0.64034;0.21681313
2;2.006684160079956;0.37694;2.5298843;1.9319435887527465;0.39151;2.4120607;0.66839;0.20999292;0.64049;0.2166374
3;2.004868036880493;0.3757;2.5258112;1.9315355668258667;0.39141;2.4118824;0.66841;0.20992249;0.64105;0.21659163
4;2.003606053543091;0.37601;2.523875;1.931332612991333;0.39167;2.4119246;0.6686;0.20987791;0.64089;0.216462
0;2.011573644561768;0.37736;2.5277739;1.9314867080688476;0.39207;2.410952;0.66854;0.20998824;0.63655;0.21786648
1;2.0096777727508544;0.37709;2.525281;1.9313009775161742;0.39241;2.410512;0.66822;0.20998636;0.63735;0.2176312
2;2.007825799713135;0.37718;2.5223906;1.9318187229919435;0.39186;2.4114423;0.6684;0.21002445;0.63721;0.21748188
3;2.0069832762908937;0.37712;2.5208662;1.931404053955078;0.39231;2.410575;0.6686;0.21000607;0.63771;0.2174004
4;2.0052723964691164;0.37813;2.5186248;1.9317241604232789;0.39235;2.411006;0.66856;0.21004146;0.63759;0.21724722
0;2.0091396072387697;0.37605;2.5328434;1.931372128753662;0.39242;2.4099293;0.66834;0.21005261;0.63987;0.21692804
1;2.0074005573654174;0.37746;2.5307217;1.9312889218902587;0.39267;2.4099934;0.66837;0.21003151;0.64076;0.21673383
2;2.0053135331726075;0.3776;2.5258439;1.9311217866134645;0.39268;2.4101393;0.66845;0.20998661;0.64086;0.21667933
3;2.0032593256378175;0.37913;2.5223992;1.931212171897888;0.39254;2.4104018;0.66833;0.20998749;0.64093;0.21651883
4;2.004169298248291;0.37786;2.5251312;1.9311126850128173;0.39318;2.410712;0.6684;0.20994312;0.6414;0.2164941
0;2.0087143572998047;0.37655;2.5328524;1.9310032735824585;0.39283;2.4099581;0.66864;0.20998067;0.63945;0.21683958
1;2.0064415100860598;0.37821;2.5280578;1.930777949066162;0.39254;2.409759;0.66835;0.20995049;0.63963;0.21674314
2;2.0052694941329956;0.37671;2.5268185;1.9308888946151734;0.3927;2.4100525;0.66841;0.20995316;0.64043;0.2165975
3;2.004240571975708;0.37745;2.5254762;1.9308221952056885;0.39265;2.410272;0.66848;0.20992261;0.64028;0.21649788
4;2.00231071182251;0.37797;2.521569;1.930985513687134;0.39278;2.4106205;0.66837;0.20993128;0.64079;0.21636856
0;2.0162768523406984;0.37503;2.5405767;1.9308075583267212;0.393;2.4087808;0.66835;0.21004046;0.63753;0.21787861
0;2.0109040022277833;0.37729;2.5364523;1.9304231273269654;0.39346;2.4084353;0.66834;0.20998792;0.63907;0.21705832
1;2.0079369450378417;0.37679;2.5300987;1.9308478612518312;0.39351;2.4093559;0.66834;0.21000753;0.63988;0.21692072
2;2.006506484565735;0.3773;2.5293982;1.9302650072479248;0.39316;2.4090736;0.66836;0.20990823;0.64021;0.21666421
3;2.0038189336395265;0.37758;2.5239053;1.9302651364898682;0.39301;2.409533;0.66843;0.20987344;0.6403;0.21652277
4;2.003272788696289;0.37839;2.5242994;1.9302063136291503;0.39329;2.4095588;0.66852;0.20986;0.64047;0.2164072
0;2.0078745873260497;0.37918;2.531895;1.9302473000335694;0.39373;2.408429;0.66823;0.20995934;0.64075;0.21680729
1;2.00506025932312;0.37916;2.5265663;1.9305083226394653;0.39345;2.408457;0.66831;0.2100156;0.64122;0.21661054
2;2.0044376369857786;0.37837;2.5256345;1.9302323328781128;0.39366;2.4082463;0.66821;0.2099747;0.64134;0.21653144
3;2.003310943069458;0.37982;2.5240119;1.930233345184326;0.3936;2.408755;0.66825;0.20993622;0.64099;0.2164369
4;2.0012226839828493;0.37867;2.5191934;1.9303987636566162;0.39376;2.4085407;0.66818;0.20999038;0.641;0.21635862
0;2.0083256789016724;0.37887;2.5168908;1.9298907056045531;0.39408;2.4078064;0.6684;0.20994107;0.63692;0.21805497
1;2.008422205657959;0.37865;2.5161765;1.9301979331588746;0.39368;2.4080813;0.66839;0.20998771;0.63649;0.21813214
2;2.0066516080474854;0.38003;2.515043;1.9298790321350097;0.39388;2.4074123;0.66851;0.20997337;0.63695;0.21787092
3;2.004472838134766;0.37915;2.5093527;1.9301059661483764;0.39363;2.407891;0.66845;0.20998618;0.6369;0.21782503
4;2.0024354530334474;0.37927;2.5077336;1.9300206230163575;0.39337;2.4081972;0.66835;0.20994553;0.63726;0.21756361
0;2.010627731552124;0.37891;2.5286043;1.9294720294570922;0.39376;2.4070144;0.66832;0.2099234;0.63797;0.21762468
1;2.008382911376953;0.37957;2.5248148;1.929529773826599;0.39359;2.4069192;0.66819;0.20994574;0.63788;0.21745282
2;2.006564894256592;0.38045;2.5211337;1.929489866256714;0.3936;2.4072585;0.66847;0.20991068;0.63863;0.21737932
3;2.0061002546691893;0.3798;2.5217237;1.9293214334106445;0.3934;2.4070983;0.6683;0.20988844;0.63862;0.21723281
4;2.0052381776809693;0.3798;2.5196438;1.9291845036315918;0.39349;2.406985;0.66843;0.20987128;0.63865;0.21719444
0;2.0075167924499513;0.37706;2.5339823;1.9293757954788209;0.39358;2.4068801;0.66839;0.2099217;0.64164;0.21656375
1;2.004376438217163;0.37769;2.5270607;1.929395460510254;0.39385;2.4069054;0.66851;0.20992526;0.64206;0.2164555
2;2.0049085290145876;0.37729;2.5273652;1.9293820987701416;0.39392;2.40691;0.66837;0.20992431;0.64184;0.21652406
3;2.001454728965759;0.37784;2.5220582;1.9295421690368653;0.39438;2.4069781;0.66841;0.20995566;0.64245;0.21618311
4;2.000550870666504;0.37896;2.5207858;1.9294158002471924;0.39354;2.4073544;0.66841;0.20990023;0.64236;0.21610662
0;2.0051188332366943;0.37979;2.5185833;1.9291586296463012;0.39365;2.4068856;0.66844;0.20988388;0.6391;0.21727903
1;2.00200897605896;0.38;2.5138962;1.9291814492797852;0.39391;2.4066772;0.66837;0.20990656;0.64012;0.21698867
2;2.000227399673462;0.38203;2.5110495;1.929113131904602;0.39348;2.407168;0.66839;0.2098545;0.64002;0.21682866
3;2.0006910319519045;0.38121;2.511442;1.9289371559906006;0.39361;2.406752;0.66864;0.20985204;0.64033;0.21689053
4;1.9986473022460938;0.37995;2.5097353;1.929031619644165;0.39369;2.4075918;0.66847;0.2098084;0.64068;0.21659818
0;2.0058255334472657;0.37852;2.525444;1.9289079843521117;0.39344;2.4067137;0.66847;0.20985273;0.64067;0.21688843
1;2.004410810317993;0.37659;2.524749;1.9291803986358642;0.39274;2.4070745;0.66844;0.20988365;0.64093;0.21663137
2;2.0036112214660644;0.37797;2.522776;1.9293480503082276;0.39334;2.406579;0.66844;0.20995925;0.64084;0.21663792
3;2.00248525428772;0.37763;2.5218186;1.9291964051818848;0.39312;2.4075317;0.66837;0.20985366;0.64087;0.21644987
4;2.0000296085357667;0.37931;2.517375;1.9293886603927612;0.39326;2.4072356;0.6682;0.20992096;0.64107;0.21631101
0;2.0079468962097167;0.37727;2.529507;1.928755075378418;0.39327;2.4065304;0.66827;0.20984347;0.63939;0.21703139
1;2.005245410003662;0.37882;2.5234854;1.9286288040542603;0.3935;2.4056988;0.66843;0.20988439;0.63952;0.21694137
2;2.0033957374191282;0.37878;2.5202625;1.9284978829574584;0.39358;2.4057674;0.66855;0.20985223;0.63937;0.21678773
3;2.003296217689514;0.37749;2.5209312;1.928580874900818;0.39292;2.4060333;0.66838;0.20984952;0.63954;0.21671127
4;2.0019026752853395;0.3789;2.5190542;1.9286630756378174;0.39306;2.406165;0.66853;0.20985883;0.64059;0.21654049
0;2.008523473892212;0.37756;2.5279498;1.9282036093902588;0.39339;2.4051344;0.66848;0.20984425;0.63948;0.21731801
1;2.007099133605957;0.37793;2.5238268;1.9281981016540528;0.39342;2.4050484;0.66846;0.20985137;0.63946;0.21729493
2;2.005590610809326;0.3788;2.5213752;1.9281619800949097;0.39346;2.4050848;0.66823;0.20984273;0.63959;0.21719971
3;2.003495799789429;0.37837;2.518256;1.928214906578064;0.39353;2.405367;0.66811;0.2098325;0.63942;0.2169989
4;2.0025531532669065;0.37991;2.5160859;1.9290769607925415;0.39265;2.406422;0.66785;0.20993626;0.6397;0.21693717
0;2.0024799099731445;0.3799;2.519607;1.9282946887969972;0.39351;2.4054239;0.66826;0.20984922;0.64026;0.2166706
1;1.999695627708435;0.3812;2.5131686;1.9280947576904297;0.39353;2.4054568;0.66841;0.20980452;0.64059;0.21656634
2;1.9993445781707764;0.38039;2.514389;1.9281381052017212;0.39393;2.405303;0.66846;0.20982851;0.64075;0.21640824
3;1.9970215508270264;0.38211;2.5097473;1.9284171068572997;0.39371;2.4064126;0.66833;0.20980185;0.64133;0.21629876
4;1.9967942378616332;0.38192;2.5076773;1.9286462154006958;0.39346;2.4068182;0.66853;0.20982069;0.64122;0.21637088
