epoch;accuracy;loss;val_accuracy;val_loss
0;0.010050352;5.688100213589876;0.029696623;5.40855748940002
1;0.05756474;4.844087619000994;0.091253266;4.680468445238859
2;0.10679747;4.531988160994351;0.16242501;4.313589939375973
3;0.18658088;4.189078690755703;0.15698647;4.827837576951517
4;0.2423973;3.8274004721580566;0.26294282;3.749840072963549
5;0.23720229;3.9257464524730086;0.2865098;3.538770390288604
6;0.26585478;3.6186291208047696;0.06463147;5.403075910895072
7;0.28688458;3.4120035220290084;0.28693047;3.4746138086099454
8;0.30952287;3.246581855027572;0.2961149;3.4224855290044602
9;0.26488572;3.673435056301029;0.23434792;3.8958452528395004
10;0.28399736;3.4634357590199736;0.30981642;3.2979134037671494
11;0.30544677;3.2785995835843296;0.30667147;3.2685800571270915
12;0.32201087;3.1402630366937583;0.31195977;3.2716680109653327
13;0.277104;3.5404902047208506;0.31435353;3.2340526053362795
14;0.29670516;3.3378814528970158;0.31605622;3.220946472319191
15;0.3137488;3.1937338690013837;0.3149144;3.2071335870591575
16;0.3311421;3.061653844535808;0.31324178;3.239395978200771
17;0.28347787;3.47675223240767;0.3220356;3.1652519922427205
18;0.3022998;3.2888228631080567;0.32071352;3.162938053345741
19;0.31545717;3.1661724477167934;0.307643;3.2423505648932496
20;0.33360973;3.044207887576364;0.31412318;3.2069156404651338
21;0.28818333;3.4215775749567525;0.32753423;3.1130897151234813
22;0.3070752;3.2415946749470117;0.32603186;3.1094548464431178
23;0.32369924;3.101001748648446;0.32195547;3.1162953751776223
24;0.34043318;2.982017850631948;0.32030287;3.1632771004191444
25;0.28977183;3.3810101799342944;0.32542092;3.098759774966618
26;0.3129196;3.2037932823990922;0.32608196;3.0857053772567786
27;0.327096;3.080464782007515;0.32697335;3.0746300238782487
28;0.34275097;2.969038665751972;0.32409883;3.143706397327316
29;0.29720467;3.3292638481120624;0.31443366;3.2189711195123776
30;0.31548715;3.1693170820660606;0.3298579;3.058551314541751
31;0.33153173;3.03904633570815;0.32507035;3.0577736852114157
32;0.34903494;2.928658943347004;0.32674298;3.1116481772469133
33;0.29767424;3.314340310328452;0.33417466;3.0265057458901956
34;0.31871402;3.146940143516911;0.32653266;3.0348333233152816
35;0.33337995;3.0272598931246706;0.3346454;3.028054225170399
36;0.347896;2.920601630759666;0.32874614;3.0595918656005274
37;0.29820374;3.301451260476466;0.32720372;3.039370155090566
38;0.31528732;3.1445520491246373;0.3305189;3.0203737773553794
39;0.33462876;3.0206512758494033;0.32958746;3.0752260947166503
40;0.3493946;2.9115246055681077;0.32698336;3.082975885752217
41;0.30047154;3.2759541690806904;0.3384013;2.9872317259268995
42;0.31900376;3.118287212098651;0.3276344;3.024721307217922
43;0.33422914;3.0022730302932623;0.32912672;3.03553985817658
44;0.35106298;2.9001239016842657;0.32583156;3.0891275479055733
45;0.3048773;3.2451045836329153;0.33957312;3.0186767962277696
46;0.3235394;3.09351703273061;0.33806077;2.9850125501832694
47;0.34059304;2.981677333412268;0.32925692;3.0265649974803486
48;0.35401016;2.9014768752905415;0.3271436;3.048047880382489
49;0.30483735;3.2496530686497995;0.3392326;2.96356081230866
50;0.32485813;3.0939968992072298;0.33084944;2.994145415932931
51;0.33840513;2.980269796098285;0.33483568;2.988260569779769
52;0.35374042;2.880460244005598;0.33485574;3.0108915966794925
53;0.30504715;3.254816130908859;0.3355969;3.014744386038817
54;0.32731578;3.0904621297441177;0.33656842;2.9910750309829517
55;0.34178188;2.973796411548429;0.33316305;3.0224560663828153
56;0.35883552;2.871014114535983;0.33013833;3.01733731064955
57;0.31186062;3.2050875349117973;0.3416564;2.9604461930901804
58;0.33055267;3.0583527027188664;0.34328896;2.948195995882039
59;0.34522858;2.9495958489225345;0.3294973;2.9918793174616822
60;0.36058384;2.852297513991061;0.33670864;3.016833420299813
61;0.30995244;3.1963352730207126;0.33671865;2.976330811715187
62;0.32880434;3.0527004213894116;0.30069208;3.1736935124068
63;0.34233135;2.950312477853292;0.34154624;2.949398871273031
64;0.35987452;2.851287082028206;0.33765012;2.9787364478611273
65;0.30923313;3.1892037940452167;0.34067485;3.0308446106703384
66;0.32867447;3.0496206192104407;0.34094527;2.969191463402165
67;0.34473905;2.941907717443793;0.33871177;2.960185061330381
68;0.35911524;2.8530969290477235;0.32897648;2.9955983857059723
69;0.3137488;3.156368136710828;0.34392998;2.9527872700215605
70;0.32951367;3.0165514311827053;0.3415963;2.946153170007574
71;0.348985;2.9081060301007517;0.33570707;2.974234452332987
72;0.3634411;2.8172016649904763;0.3303286;3.004867297609139
73;0.31599665;3.1581383800262683;0.34462106;2.92433647335033
74;0.3340593;3.0271086973302506;0.34442073;2.9172497838354476
75;0.34808585;2.9202091498752996;0.34027424;2.943018671801633
76;0.3628916;2.8289066031765753;0.33860162;2.9472706732542617
77;0.3165561;3.1516152403848556;0.34723517;2.9114068039237995
78;0.33355978;3.015798219329561;0.33606762;3.0186508543351116
79;0.34662724;2.919654771190165;0.3066915;3.0976249409453644
80;0.36142305;2.829038029131682;0.3385415;2.9393775158221156
81;0.31743526;3.1352884049915595;0.34829682;2.9206785814231617
82;0.3350184;2.9971236036256754;0.34313872;2.917689880141822
83;0.348955;2.89785524890246;0.3375199;2.9384416600932246
84;0.36487973;2.804354062165751;0.3455425;2.9306845857054378
85;0.31528732;3.1402903121450674;0.3451519;2.961607641576196
86;0.33372962;3.004055994550895;0.3415863;2.973719946258818
87;0.34933463;2.906863467467715;0.34565267;2.914263950284485
88;0.36254197;2.816712456895872;0.33921257;2.95629031578903
89;0.3174952;3.1295842423158535;0.34874752;2.900774166407183
90;0.33620724;2.98888226726171;0.34021413;2.9223061229871665
91;0.35060343;2.8899378654597054;0.3412057;2.9111165957682577
92;0.3658288;2.806349133591518;0.3365484;2.9555838931247096
93;0.3172954;3.1189080742009154;0.34329897;2.9029608699671754
94;0.33852503;2.98281100034104;0.34058473;2.923416243184863
95;0.35008392;2.8869148959284243;0.3414661;2.920012291739969
96;0.36512947;2.8003288870272427;0.32963753;3.007215360851239
97;0.31765506;3.1177836671814587;0.3429985;2.9070186877189697
98;0.3357477;2.9791426158622096;0.34395;2.9226920318115703
99;0.35075328;2.8837322457062315;0.3453422;2.9180093299397423
100;0.36389068;2.8007276454545043;0.34212714;2.926816845184092
101;0.31778494;3.1120664774609343;0.3513316;2.8834844605087318
102;0.33654693;2.976125080567187;0.34775597;2.9026091147566695
103;0.35117286;2.880136933777948;0.34899792;3.030400060021969
104;0.36729738;2.7951671558877695;0.3274541;2.988464851818426
105;0.3204324;3.096538374795938;0.35162205;2.8987132259037183
106;0.33789563;2.9652495579341487;0.34702483;2.8917847319942
107;0.35116288;2.8722964381927722;0.34002385;2.909530367387835
108;0.36503956;2.785080835337529;0.34363952;2.935304228302158
109;0.32230058;3.093764568533739;0.34142604;2.9263130520920617
110;0.33860493;2.9595035055409307;0.34817663;2.878717068820963
111;0.3533408;2.865153118777458;0.34234747;2.9072126796483384
112;0.36672795;2.782638319313069;0.33684886;2.9474970416339765
113;0.32020262;3.098756541986295;0.34610337;2.8808708325066528
114;0.33704644;2.9654407074384372;0.34513184;2.881521135949723
115;0.3514626;2.867091104502568;0.34691465;2.8926932147091917
116;0.3649896;2.78853141560274;0.34493154;2.8903439587644297
117;0.32163122;3.0951021028601606;0.34918824;2.886670972989953
118;0.3377258;2.9626457587532373;0.3465541;2.879117446177451
119;0.3524816;2.8700293451928727;0.3434893;2.8983977590985313
120;0.366678;2.7905578698648514;0.33991367;2.925870656967163
121;0.32179108;3.08618941575365;0.34613344;2.8824304659348314
122;0.33790562;2.954434356421156;0.34394;2.8819398538535816
123;0.35380036;2.8600169789150853;0.347135;2.888204881602236
124;0.36674792;2.779356700380135;0.34517193;2.9125814471403353
125;0.325018;3.0610370788427876;0.35009965;2.8569917992862592
126;0.34107256;2.9321845102188226;0.34012398;2.9354213107272487
127;0.35497922;2.840810322700559;0.34232745;2.8866676546423635
128;0.367697;2.758418275267267;0.34094527;2.9333634504576778
129;0.32124162;3.0721108474389975;0.35187244;2.8427362030424423
130;0.3418918;2.940653355835039;0.34609336;2.867122315689731
131;0.3534507;2.851510294867903;0.3419268;2.881985372289672
132;0.3679368;2.767767254348911;0.3468746;2.8972898523520936
133;0.3223106;3.070448282124746;0.34806648;2.8519422605519407
134;0.340613;2.9428027944491646;0.35033002;2.847056811422948
135;0.3537504;2.8489563361458154;0.35048026;2.9094289699783715
136;0.36463994;2.7721067962744046;0.34703484;2.89870747428416
137;0.3234395;3.0669635189768605;0.3455926;2.8740756283025912
138;0.34019342;2.9389312163643213;0.3460433;2.868969045636599
139;0.35411006;2.8520458031188496;0.34447083;2.877262444752257
140;0.36691776;2.77161437715106;0.34756568;2.889954693177167
141;0.32273018;3.068721084643508;0.3553379;2.8314622982078808
142;0.33838516;2.9376703900144534;0.35066053;2.8545184409831794
143;0.35319093;2.8453853984013238;0.33799064;2.948465869554778
144;0.36569893;2.769276670177879;0.34360945;2.9571129571446373
145;0.32577726;3.064786149412775;0.35162205;2.851591993170931
146;0.34180188;2.9354276315635426;0.34978917;2.8453202857385818
147;0.35595828;2.848824596770889;0.33620784;2.9084915602603534
148;0.36797675;2.7717624753332504;0.33825105;2.9412017685678
149;0.324998;3.0466730490974756;0.3410154;2.9731671261360577
150;0.34176192;2.9211757512348693;0.34665424;2.899089349505237
151;0.35568854;2.8348042379559764;0.33908236;2.9121583282490215
152;0.36859614;2.7602120561672905;0.34759572;2.869325976847383
153;0.3286345;3.037808310345311;0.35074067;2.825608638851234
154;0.34542838;2.910398994260432;0.35105115;2.839710013031045
155;0.35870564;2.825208729795178;0.34722513;2.8895261025489747
156;0.37222266;2.748069780866813;0.34483138;2.8890554868351774
157;0.32357937;3.0516258249502353;0.34848714;2.864080268098875
158;0.34294078;2.924490825599417;0.3516521;2.8369539875508574
159;0.35462955;2.837787298900087;0.3516621;2.862229319179759
160;0.36788684;2.7625307774604737;0.34080505;2.9102440605992856
161;0.3243686;3.044721438146918;0.3519125;2.829740337703539
162;0.34257114;2.9136426345161768;0.3564296;2.830910700361442
163;0.35493925;2.8298647543963265;0.34870747;2.8476731240596918
164;0.3690457;2.755954437548547;0.34577286;2.8729830958959086
165;0.32449847;3.0387243626977476;0.35135162;2.8421255828779373
166;0.3445892;2.9103715828312633;0.3466843;2.864895263291381
167;0.35656768;2.8300497001394285;0.3535751;2.834054170667058
168;0.36944532;2.7548042355900835;0.347135;2.8612252031750693
169;0.32970348;3.0290478050251446;0.3555482;2.820698149064008
170;0.3464474;2.902793438538261;0.33952305;2.888801985079675
171;0.3584359;2.8190682275825756;0.35208276;2.8553336739844983
172;0.37202287;2.7433750818452567;0.34457096;2.909571245808126
173;0.32717592;3.030409629387624;0.34499162;2.842490452329826
174;0.3465473;2.900346356584593;0.35373536;2.8120188716122563
175;0.35847586;2.815863336748479;0.34527206;2.8645622687571493
0;0.3368766;2.955996822213273;0.36984065;2.7077836595027303
0;0.33861494;2.949193061770076;0.37097242;2.69608326954081
1;0.34338036;2.9219726885066315;0.3714532;2.683169773723131
2;0.3494645;2.85867721391151;0.3720341;2.674794781444777
3;0.35719708;2.805213224095152;0.36933985;2.681098693918525
4;0.36454004;2.7542098647798112;0.37357652;2.694842722460217
5;0.34391984;2.8873122643936626;0.37322596;2.663653388686244
6;0.35341072;2.819917264801767;0.37404725;2.658135789086771
7;0.3630215;2.7658262056158023;0.374518;2.6715395996617937
8;0.3692655;2.7175665511499587;0.37469828;2.6650898794116764
9;0.344809;2.88156355250522;0.373877;2.6444523876710706
10;0.35183224;2.817637267472494;0.37543944;2.6384648053329927
11;0.35860574;2.7617834519852154;0.37530923;2.643398610771199
12;0.36497962;2.7172229085736874;0.37499875;2.6389184812182878
13;0.34762627;2.8482794767755375;0.37824383;2.6189845494167074
14;0.35576847;2.7814830934909907;0.37848422;2.627492177417689
15;0.36526933;2.727418978805737;0.3743277;2.6299678701990925
16;0.37055427;2.6835330430504003;0.37486854;2.6310766736029967
17;0.34669718;2.8490115149551647;0.3773224;2.6163647009118254
18;0.3553289;2.779272520938493;0.37635088;2.6180599271143805
19;0.36454004;2.725941216396859;0.37696183;2.6209129111114637
20;0.37035447;2.6786869645423597;0.3752792;2.6244618158016655
21;0.34991407;2.8254117891001886;0.3764811;2.6000705237269477
22;0.35787645;2.7552545439556737;0.37697184;2.6106816902136205
23;0.36690778;2.7023731021929884;0.37782317;2.60997880352834
24;0.37342152;2.658970622684035;0.37646103;2.619173284832443
25;0.3492447;2.8163914041750875;0.37944573;2.5907264859305217
26;0.35789642;2.7498528355222835;0.37963602;2.591650850416986
27;0.3663383;2.6961939092487324;0.37711206;2.6041544574258575
28;0.372922;2.6493479445614776;0.3758;2.5999567119988165
29;0.3492647;2.817024699867229;0.37826386;2.5971386307405404
30;0.35955483;2.7471150829054207;0.37979627;2.601154717094695
31;0.36638826;2.693890337901347;0.37831396;2.623791213680123
32;0.3738411;2.6453408002853394;0.37574992;2.6062444268244342
33;0.3504236;2.8093216471050098;0.37850425;2.5793793681032913
34;0.3602242;2.7345114862522504;0.380888;2.581695878910453
35;0.36758712;2.6799694849249653;0.3778332;2.580990864251532
36;0.3745704;2.634022312319797;0.37839407;2.605268870233955
37;0.35051352;2.8038733901879977;0.3787246;2.579393483063565
38;0.35967472;2.73062219583165;0.38103822;2.5839470097989627
39;0.3674073;2.675368018162525;0.37667137;2.585933280709002
40;0.37538964;2.6260718527199973;0.37947577;2.583990297433583
41;0.3475164;2.801909384672599;0.37894493;2.5736914367571924
42;0.35835597;2.7283941470753508;0.3800667;2.574402144518821
43;0.36679786;2.675561695833645;0.3769318;2.5846113582057573
44;0.37257233;2.626632413519618;0.37870458;2.5853307534302754
45;0.3509631;2.790099585452653;0.37902507;2.5726317866806188
46;0.36032408;2.7179116955803484;0.3812085;2.5793145040454655
47;0.36898577;2.661553914284767;0.3778332;2.5742938798792006
48;0.37664843;2.612703011468853;0.3792454;2.6016428548506174
49;0.34867528;2.7884672491446785;0.380898;2.5612346967926856
50;0.3595848;2.715606309645011;0.3808179;2.5667144696274145
51;0.36630833;2.6614598429873775;0.37911522;2.5846458422992566
52;0.3755095;2.609744488735638;0.37852427;2.589003794472772
53;0.35118288;2.781307276557474;0.3811584;2.5718220582304667
54;0.36155292;2.7056571298548024;0.3809481;2.5646819742271183
55;0.36986494;2.6502840741516076;0.3803672;2.5730108000543312
56;0.37725782;2.600237709329561;0.37901506;2.5758705702750517
57;0.34837556;2.7844486571943667;0.37982634;2.552616574915459
58;0.36086357;2.70782504209777;0.38228017;2.556553323325402
59;0.3678169;2.65421428156021;0.37945575;2.562946445509686
60;0.37578925;2.606588381102018;0.37813368;2.5803401635901277
61;0.35002398;2.7873356875861086;0.3825606;2.560028936983606
62;0.36076367;2.7113563653148347;0.38175938;2.552965988492752
63;0.36808664;2.6550479716504625;0.38010678;2.569046553398538
64;0.37661844;2.6045946917113136;0.37951583;2.5853648582076048
65;0.34943455;2.77463807588648;0.3833118;2.548668429837786
66;0.36158288;2.695732726770289;0.38175938;2.559363426343513
67;0.3698849;2.6375021641821506;0.3810282;2.566631082920292
68;0.37766743;2.591148748574659;0.37799346;2.59002831813084
69;0.3529412;2.7753873843975994;0.380247;2.553543891989215
70;0.36326128;2.695980263945392;0.3823603;2.5492005726223494
71;0.37190297;2.639505667226089;0.3817293;2.5717612700459287
72;0.3785466;2.5879839564223426;0.3790551;2.563815437013869
73;0.3516624;2.77268898677643;0.38083792;2.553565160346902
74;0.3607237;2.6962617105992552;0.38246047;2.5467395555659946
75;0.36945534;2.6412897809692053;0.38201976;2.5591718928314493
76;0.378117;2.5879468811899806;0.37888485;2.570716093855741
77;0.35409006;2.761648227491647;0.3822201;2.5494361511794974
78;0.3640805;2.684658150538764;0.3845938;2.5492138113447065
79;0.37243247;2.62807593077345;0.38142884;2.564456330133813
80;0.3811441;2.5762945642251798;0.3826808;2.568228273724685
81;0.35538882;2.7535261292286846;0.38403293;2.543157885656534
82;0.3662684;2.6756414681139504;0.3831716;2.536726117057727
83;0.3750899;2.617705701409703;0.38103822;2.558720840619666
84;0.38153374;2.5663841187649066;0.37824383;2.5686164979061052
85;0.3527014;2.758790381576704;0.3810182;2.5357265352515515
86;0.36231217;2.6818341153204592;0.38282102;2.5629975074838933
87;0.37172315;2.6207615656925896;0.38138878;2.554034983554305
88;0.37741768;2.57359523221355;0.37557966;2.5837044845705686
89;0.35116288;2.7593056306509713;0.38181946;2.543442276943043
90;0.36269182;2.6787324576731533;0.38111836;2.535626992669188
91;0.37115368;2.6193631677828786;0.38295123;2.5577379901923862
92;0.37732777;2.5735703598507835;0.38157907;2.547684219996949
93;0.35439977;2.740357904025661;0.38112837;2.532821420291385
94;0.36616847;2.663269284131277;0.37996656;2.5445753751390643
95;0.37554947;2.6057432905944715;0.3791653;2.5474134006231433
96;0.3826027;2.5531630846850404;0.37758282;2.5641498588584004
97;0.35210198;2.7529886416766955;0.3826808;2.5277090845468484
98;0.36256194;2.673864517370453;0.38486424;2.531389540239147
99;0.36917558;2.6169213354587555;0.379626;2.558280495097437
100;0.37964553;2.56548890136087;0.37921536;2.56416802357436
101;0.3533308;2.7556638059103884;0.38381258;2.5279923362811356
102;0.3629216;2.6775137593069345;0.38110834;2.5295468369483336
103;0.37153333;2.618984154270738;0.38252056;2.5478106380501746
104;0.38122404;2.5681450723687096;0.38067767;2.558893456358241
105;0.35205203;2.7468937574445134;0.38410303;2.5243402526288516
106;0.36338115;2.666988291627611;0.38219005;2.532817534190733
107;0.3726822;2.6064153644434938;0.38497442;2.543937292257843
108;0.3807445;2.5564104358253577;0.3788448;2.5544345252106084
109;0.3535406;2.7479786737953003;0.38078785;2.5366142452870477
110;0.36522937;2.6657236681874754;0.38224012;2.5320303946408913
111;0.37378117;2.6095605866835854;0.38212994;2.5486577890531747
112;0.382283;2.5560031725317622;0.3772723;2.5575453212519323
113;0.35193214;2.741238750460203;0.3849544;2.5231710682306283
114;0.3643902;2.659591655215949;0.38181946;2.5333927731572015
115;0.37398097;2.601493053728967;0.38074777;2.547574982362096
116;0.38149378;2.5478939651833166;0.38204983;2.5468369423770354
117;0.35494924;2.7415674554417504;0.3843334;2.5282768034003316
118;0.36678788;2.6623786163452032;0.38493434;2.5248763971340953
119;0.37563938;2.6019998735479075;0.38083792;2.538493068992595
120;0.38181347;2.551842491263929;0.3805675;2.56894506925501
121;0.3555387;2.7357635266335723;0.38391274;2.5250960699951395
122;0.36631835;2.657763699588873;0.3826808;2.5364143177150993
123;0.3755295;2.593599651399476;0.38142884;2.5492052718815628
124;0.3835618;2.5436438355604403;0.38200974;2.5474102875882427
125;0.35477942;2.7311042102858845;0.38424325;2.518218519059914
126;0.3644901;2.652317301544082;0.38473403;2.5315567668167005
127;0.37376118;2.593743381445365;0.3823503;2.538784687447288
128;0.38241288;2.5429507618974845;0.38239035;2.551531960076815
129;0.35249162;2.7435484386770925;0.38147894;2.527596907612607
130;0.36450008;2.664353829744222;0.38360226;2.5240380475339332
131;0.3730019;2.601687961146045;0.3833018;2.5346853253476365
132;0.38054466;2.5505558267578747;0.38067767;2.544657437867037
133;0.35380036;2.733060096535841;0.38348207;2.5166943719339705
134;0.3647998;2.6494539492880294;0.38157907;2.5407773687013213
135;0.3751998;2.5906666384633543;0.38188955;2.5303558735111293
136;0.38345188;2.5383845772737126;0.38004667;2.5519609711706295
137;0.3517823;2.747722631753863;0.38393277;2.5139844936869373
138;0.36425033;2.663065852106685;0.38392276;2.528429769537985
139;0.37304187;2.6033428197016804;0.38262072;2.536181221399301
140;0.38097426;2.549819621207464;0.38084793;2.5542720579933005
141;0.3556386;2.7421640279652824;0.38531494;2.513779321899023
142;0.36606857;2.6606216371974067;0.38192964;2.519346728147718
143;0.3755095;2.600930025510471;0.38299128;2.533254738422176
144;0.38266265;2.5490493799566916;0.38137877;2.5337462573384415
145;0.35612813;2.7318007811865845;0.38480413;2.5123087618306688
146;0.3657289;2.651524174777443;0.38269082;2.5232103031312403
147;0.37372124;2.5942589058290664;0.38429335;2.5304092284886215
148;0.38360175;2.5403612716423583;0.38221008;2.558160681895611
149;0.35309103;2.7406590430023114;0.38443357;2.5190055602487273
150;0.36619845;2.655094012351292;0.3833118;2.516888764865272
151;0.37371123;2.599818468474976;0.38435343;2.548199921827298
152;0.38214314;2.5432388327463205;0.3833118;2.551428882072248
153;0.3573769;2.7207964630535497;0.38436344;2.5207220144106897
154;0.36722746;2.6402732647593368;0.3852849;2.513829102736112
155;0.3767683;2.580077034890499;0.38480413;2.54431947090166
156;0.38338196;2.52579193590852;0.3812686;2.5499255064586124
157;0.3543598;2.7192092513489294;0.38563544;2.509863833064532
158;0.36601862;2.636890771977432;0.38511464;2.511650529142987
159;0.37498003;2.581139428764963;0.38170928;2.5398495094964018
160;0.3834319;2.524632612686328;0.38187954;2.5352853456420212
161;0.35565856;2.7309188077516873;0.38169926;2.5219696980115316
162;0.36721748;2.6508090749878406;0.3824304;2.511571813210091
163;0.3766684;2.58704812714206;0.38181946;2.5323028879086227
164;0.38305226;2.5389596863323467;0.38062757;2.539789870791829
165;0.35440975;2.732076584911712;0.38334185;2.5101952800989
166;0.3683364;2.647859400876648;0.3818996;2.5185518872653883
167;0.37686822;2.5869786793466116;0.3830614;2.522079446925176
168;0.38330203;2.5352530163114944;0.38124856;2.558809981370568
169;0.35149255;2.733274758548078;0.3833819;2.518075576659428
170;0.36380076;2.651197404355344;0.38402292;2.5147676266285948
171;0.37276214;2.5912501325692667;0.38170928;2.5300145418807376
172;0.38141385;2.534953810141215;0.38100818;2.5561577678872256
173;0.35492927;2.726587941579502;0.38233027;2.5044760797208583
174;0.365639;2.6466736189087334;0.38456377;2.5147831104719662
175;0.37389106;2.5846210967396837;0.38117844;2.5284673806415925
176;0.38203326;2.5340465775231267;0.38086796;2.527139251465831
177;0.35517904;2.724355194117407;0.38409302;2.5129680045517038
178;0.36704764;2.639796045506397;0.38218004;2.511009042802184
179;0.37495005;2.580945725940987;0.38039723;2.5260489965233566
180;0.3856098;2.5289624080328683;0.38195968;2.5370653084957167
181;0.35653773;2.7215564872907554;0.38404295;2.5125739797424766
182;0.36754715;2.638527451345073;0.38580573;2.504934770567611
183;0.37686822;2.5815468383262226;0.3838326;2.523691025091852
184;0.38456082;2.5253822517669415;0.38158908;2.559482717651499
185;0.3551091;2.724855665813017;0.38475406;2.501262274558234
186;0.3675072;2.638430426264053;0.38349208;2.5011787066316087
187;0.37600902;2.5803998232345142;0.38208988;2.515381336135791
188;0.38660887;2.523421625880634;0.38133872;2.535719001774296
189;0.35462955;2.7285967910533673;0.3850245;2.5100937621246766
190;0.36494964;2.6442375137373006;0.38587582;2.518017042607241
191;0.3726822;2.5859609896417166;0.38434342;2.5244650638386044
192;0.3819933;2.5278528373107276;0.38199973;2.551096806688083
193;0.35800633;2.7184754177127655;0.3850245;2.5071114727047146
194;0.36934543;2.636805532685936;0.3831716;2.5042626397263
195;0.37680826;2.574270388354426;0.38167924;2.535315877195355
196;0.38692856;2.5229275334826515;0.3831716;2.5354180999630005
197;0.35706723;2.723613715080349;0.38543513;2.505899863240048
198;0.36669797;2.644107441691791;0.38394278;2.5207375191023225
199;0.3759391;2.585307622885765;0.38381258;2.5207872940591325
200;0.38508034;2.5298905298685477;0.38203982;2.5305067062530666
201;0.35433984;2.722445911153808;0.38488427;2.5027511751399754
202;0.3653293;2.6389057713243966;0.3862364;2.5189340697275684
203;0.37453046;2.577721914214551;0.38447362;2.5232576241025857
204;0.38331202;2.522951959344127;0.38364232;2.5497242514709875
205;0.35716712;2.7102761284622083;0.3871478;2.5000610785328523
206;0.36921555;2.628406315127297;0.3838827;2.5125046363631403
207;0.3773178;2.5657524429928618;0.38307142;2.5252109714076734
208;0.38714835;2.511851719197105;0.3808179;2.5247690394320297
209;0.35598826;2.7153206393694327;0.38626644;2.503011512420332
210;0.36731738;2.6275797806432486;0.3849043;2.501809655665435
211;0.37774736;2.5703838780103134;0.38288113;2.5203248300589025
212;0.3859295;2.5139829671901204;0.3819697;2.5419222363900253
213;0.35661766;2.723311617551252;0.3864367;2.5132684108158627
214;0.36842632;2.639804421559624;0.38404295;2.5048594562614825
215;0.37894621;2.5788677475793893;0.38361228;2.5087157012101247
216;0.38487053;2.5250114650677538;0.38136876;2.539628437205357
217;0.35892543;2.7063421520125837;0.38233027;2.5056645208104613
218;0.3702046;2.6268900579503733;0.38415313;2.5179449122811954
219;0.38056466;2.5625334597761977;0.3812686;2.5252480464131306
220;0.38737813;2.5093164269424157;0.38178942;2.5307351659308024
221;0.35511908;2.7164593124786;0.3833719;2.5074788732913578
222;0.36640826;2.6328899339794196;0.38369238;2.502787429655614
223;0.3775775;2.57266292959223;0.38384265;2.5353960274580882
224;0.3862592;2.5188836468302687;0.38245046;2.551059971475815
225;0.35752678;2.7129832609840063;0.38510463;2.4989682722366595
226;0.36840633;2.6325699363828012;0.38035715;2.5103711097535224
227;0.37724784;2.5694262117071225;0.38219005;2.519096991940999
228;0.38573968;2.5156178209940188;0.37915528;2.5413393025822857
229;0.35557863;2.719585936849989;0.383432;2.50711480560095
230;0.36690778;2.63732495134139;0.3835622;2.520164821561829
231;0.37643862;2.5764682827245853;0.3812085;2.531117423920201
232;0.3821831;2.5205427996642755;0.38058752;2.5286806591194
233;0.35788643;2.712104118693515;0.38224012;2.5013936828299257
234;0.3702945;2.6277525316723778;0.38411304;2.5251800485485107
235;0.37976542;2.5652959328478255;0.3830013;2.5126330239279464
236;0.38819733;2.510757640270931;0.38237032;2.565849767443005
237;0.35887548;2.711232266919997;0.38590586;2.511618360504747
238;0.3704244;2.626767708974726;0.3851647;2.503630301495686
239;0.37862653;2.568107204745188;0.38321164;2.521067236800136
240;0.3870784;2.5113440710107993;0.3835121;2.5487392779575715
241;0.35646778;2.718676384300222;0.38418317;2.4914517499635345
242;0.3682165;2.635219933660439;0.38481417;2.5069371212147353
243;0.37848666;2.5735634366417175;0.38283104;2.5258892815056555
244;0.38540003;2.5193627163424823;0.38035715;2.5309023319491204
245;0.35670757;2.7080471167326583;0.38283104;2.5081479253102996
246;0.36942536;2.623396572554508;0.38563544;2.4987831782408816
247;0.37768742;2.5631542727922842;0.3851647;2.505618599040015
248;0.38670877;2.509898211416381;0.38198972;2.5266736243337795
249;0.35888547;2.7058284765924028;0.3833719;2.504029457726439
250;0.37096387;2.6249583300269776;0.38504452;2.5214647066891
251;0.38058463;2.561831581089503;0.38684735;2.5142167033025045
252;0.38952607;2.5075960102898387;0.3822301;2.521622539024793
253;0.35630795;2.7135518949355006;0.385976;2.496113251677543
254;0.36813658;2.63200201631507;0.38431337;2.5201773573999446
255;0.377068;2.5710485674383694;0.38336188;2.5159788851093436
256;0.38578963;2.5146025437528214;0.38098815;2.5213906434313906
257;0.3560282;2.7160732810911923;0.38742825;2.498751160809812
258;0.3681266;2.628586980692871;0.38494435;2.501093269158143
259;0.37780732;2.5707309747595923;0.38633654;2.514109419142108
260;0.38626918;2.5121108272953716;0.38315156;2.534172141956718
261;0.36037403;2.701220556445744;0.38392276;2.497227149388486
262;0.37149337;2.618692272993;0.38539508;2.506881783666861
263;0.38138387;2.5605812057509754;0.3843234;2.5233818538520367
264;0.38752797;2.5069448931900133;0.38093808;2.5438018873820774
265;0.3592751;2.6994363657958673;0.3838226;2.499359938824963
266;0.37024456;2.6171486847998238;0.38340193;2.500682479292059
267;0.37923592;2.5521608777820606;0.38366234;2.52059042255211
268;0.38824728;2.498603345411818;0.3818996;2.5330655173106806
269;0.35829604;2.701992782409234;0.38367236;2.5013957905662436
270;0.37024456;2.6193477804093717;0.38481417;2.4964315418552543
271;0.3803049;2.5575441279069846;0.38221008;2.5321614707913787
272;0.38818735;2.504197478523035;0.38297126;2.525510700905193
273;0.3579264;2.7116743869641247;0.38563544;2.4949454021789874
274;0.36892584;2.6256713234555082;0.38316157;2.5060420863373323
275;0.3775076;2.5641955500825895;0.3833819;2.52602797574832
276;0.38636908;2.5099975464441586;0.38217002;2.5321808992327215
277;0.3596947;2.6987306871225156;0.38673717;2.4984150068031377
278;0.37137347;2.616417472167393;0.38581574;2.520205730509101
279;0.37831682;2.5545401618151407;0.38393277;2.5092570146332176
280;0.38831723;2.502852743010387;0.3823002;2.5322896218467874
281;0.35714713;2.7069832471478015;0.38557535;2.5014004678316866
282;0.36774695;2.6270967132752507;0.3854852;2.4977146886542085
283;0.37763748;2.5651361349293644;0.38205984;2.5132163493469846
284;0.38515025;2.5113413133432188;0.38353214;2.5120680970614115
285;0.35769662;2.7034914222214836;0.38550523;2.497477883638899
286;0.37130356;2.6171471286002936;0.38659695;2.512970167959752
287;0.37942576;2.560100447719969;0.3845237;2.5172483903486556
288;0.3879076;2.505787001089062;0.38389271;2.515249297299651
289;0.35943493;2.696910310279378;0.38639665;2.4910879825491845
290;0.3720828;2.613532332279493;0.38709775;2.491049145445619
291;0.37956563;2.5507716057855454;0.38439348;2.5115261594887195
292;0.386459;2.499950302607568;0.3835622;2.5115736076879167
293;0.35975462;2.700801282435122;0.38514468;2.503634859933676
294;0.3716732;2.615994415319789;0.38385266;2.509407006113442
295;0.38094428;2.5551861461318666;0.3839528;2.5195534413323655
296;0.38870683;2.500976718600144;0.38517472;2.533966398483511
297;0.35954484;2.702084825471844;0.38647676;2.498572613168114
298;0.3707341;2.617977190276851;0.38696754;2.4948484997654634
299;0.37990528;2.557344854564008;0.38625643;2.521970771887912
300;0.3892763;2.501322903748973;0.38341194;2.51826143280044
301;0.35805628;2.69546655293011;0.38539508;2.4915649285307304
302;0.3709239;2.6065455707900056;0.3862464;2.4933497336031456
303;0.38037485;2.546517778616732;0.38600603;2.551647963087044
304;0.3881374;2.4956598098930494;0.38508457;2.524327357406421
305;0.35505915;2.7073760238449895;0.3891209;2.487805131075857
306;0.3680367;2.621171470112203;0.38733813;2.4966944464500864
307;0.3767583;2.560788120455144;0.3865669;2.5239666707236212
308;0.38652894;2.50703839458468;0.38580573;2.5222512982274994
309;0.3571771;2.699641561797818;0.38673717;2.4873883203387948
310;0.37079403;2.6159043577321044;0.3864367;2.4852784885037487
311;0.38006514;2.5524035615994194;0.38406298;2.5189061558147334
312;0.3882273;2.497526632016882;0.38144886;2.5346825697878703
313;0.3581162;2.693948477354196;0.38583577;2.4890330745042095
314;0.37219268;2.6099224653847686;0.38523483;2.5160440011791203
315;0.38055468;2.549274954725714;0.38538507;2.515618077842644
316;0.3898957;2.494339856116668;0.38346204;2.5144399472492616
317;0.35849583;2.701392214773866;0.38525486;2.494636133723653
318;0.36974505;2.61970900620341;0.38728803;2.502868665402551
319;0.3796855;2.5574384952902487;0.38334185;2.5129055423968727
320;0.38711837;2.50395502862723;0.38571557;2.517915901352701
321;0.35826606;2.701676910109532;0.3871278;2.4907892269633045
322;0.37011468;2.61567248796563;0.38862014;2.4858912072985087
323;0.37952566;2.5575521108896835;0.38746834;2.5022639167530274
324;0.3872982;2.4998236364873168;0.3825506;2.53234165589982
325;0.3577066;2.700791280211695;0.38381258;2.4957135317036925
326;0.36984494;2.616517862471778;0.38525486;2.4998162248667657
327;0.3793658;2.5547075867652893;0.38504452;2.527585378905888
328;0.38622922;2.5002263755444676;0.3841231;2.5257394174060175
329;0.35892543;2.697071848927861;0.38651684;2.4891859185306173
330;0.371883;2.609650477423997;0.38743827;2.4989544499920853
331;0.37901613;2.5512279162321554;0.38781887;2.496027642912318
332;0.3877078;2.494816647237524;0.3835021;2.515978423622004
333;0.35841593;2.704669497964327;0.38596597;2.4911206645281325
334;0.371863;2.6177303820010036;0.38698757;2.494713257857426
335;0.3806246;2.555195635389489;0.38646674;2.506726689555567
336;0.38932624;2.500238332983173;0.38319162;2.5166892176022673
337;0.3592551;2.704333247126216;0.38461384;2.499214050328403
338;0.37147337;2.6199798628192426;0.3870176;2.494039630294228
339;0.37974545;2.559490022756864;0.38369238;2.5280627869857115
340;0.3879176;2.507162951828574;0.38072774;2.5291437762124196
341;0.36128315;2.68133559609618;0.3862264;2.4976072002877645
342;0.37393102;2.5976483869125775;0.3838827;2.507516555874719
343;0.38141385;2.5329006702241386;0.38485423;2.5136560713305527
344;0.39180386;2.479237103325022;0.38073775;2.530942647140962
345;0.35889545;2.6973826179419027;0.38638663;2.4917670538759933
346;0.3715533;2.6131008371825106;0.383422;2.498006683904952
347;0.38028494;2.552433407215206;0.38479412;2.5045258885083634
348;0.38669878;2.498293120309215;0.38304138;2.5418891052188664
349;0.35784647;2.7068123027796633;0.38354215;2.4948202290648
350;0.36814657;2.6189157061869532;0.38557535;2.4853353634008912
351;0.3772878;2.560232264687643;0.38665706;2.5077733484160665
352;0.38610932;2.5047516814430657;0.38513467;2.5322936608346893
353;0.3599045;2.6909609637449465;0.3870076;2.47662776720058
354;0.37219268;2.604776240523209;0.38661698;2.4861439592482415
355;0.3803149;2.54925622065049;0.38662702;2.5005381870239227
356;0.38844708;2.4939377455760146;0.3833018;2.5114100654487195
357;0.36013427;2.692078295571115;0.38767865;2.480286034309734
358;0.37168318;2.6074913154020334;0.38746834;2.489032319232029
359;0.37991527;2.548267973658374;0.38511464;2.5221039900636155
360;0.38930628;2.491297311109045;0.38122854;2.538157907760273
361;0.3584359;2.7057467295843014;0.38774878;2.492107893013939
362;0.37057424;2.618721428887009;0.3867572;2.4966926990144915
363;0.3796755;2.557776321840408;0.383422;2.5230821498611813
364;0.38807744;2.5044553571040065;0.38178942;2.524794863783954
365;0.36068374;2.6920190969543993;0.3863165;2.4829778217643135
366;0.3717931;2.6056520742223697;0.3871979;2.485618694098923
367;0.38133392;2.5423739754482915;0.38673717;2.500565080822927
368;0.39076486;2.487475858320056;0.3835021;2.5255592558186915
369;0.36034408;2.6928706746119673;0.38557535;2.4901561310931246
370;0.37234256;2.605168551054147;0.38851997;2.4874424746523753
371;0.3818934;2.544833947173165;0.3861062;2.5072722238733705
372;0.3894961;2.491476097070348;0.38602605;2.5210445740526874
373;0.36110333;2.695474217995963;0.38602605;2.4856750923116415
374;0.3714634;2.6097758940571105;0.38398287;2.512193799706165
375;0.38084438;2.549237326054317;0.3863065;2.5001464530796977
376;0.38921636;2.4956434321068133;0.38628647;2.527688489442907
377;0.3588455;2.6990878434132433;0.38746834;2.4839911505169474
378;0.36795676;2.617465489736908;0.38759854;2.4918773537030363
379;0.37814698;2.55564763410317;0.3863566;2.499439554593259
380;0.3873981;2.4977268437137994;0.38372245;2.5125330755299746
381;0.36030412;2.691409788778066;0.3866771;2.48101316569021
382;0.37132353;2.607562949895249;0.3841431;2.505321403484479
383;0.381254;2.542695949754447;0.38116843;2.53340954959278
384;0.38908648;2.490981072720969;0.38702762;2.525845634410352
385;0.35746685;2.6926969127429414;0.38842982;2.4877935437954517
386;0.37081403;2.6053420987427995;0.387268;2.4896937994373523
387;0.3794757;2.543877602004639;0.38555533;2.496084838704678
388;0.38859695;2.4896632996971344;0.38348207;2.5201193369939343
389;0.36121324;2.689512877436855;0.3880192;2.481552781316426
390;0.3724924;2.6054004497082945;0.38753843;2.494862786704802
391;0.38060462;2.5461614933770025;0.3830614;2.5128242884745284
392;0.3897059;2.4899885502007915;0.38269082;2.5266011823529544
393;0.3596947;2.6831049896262185;0.3833719;2.510948245377208
394;0.37210277;2.5992208354918245;0.3878289;2.493368908505192
395;0.38004515;2.5428241617082024;0.38308144;2.5155198325108903
396;0.3901055;2.4843863018638337;0.38228017;2.524903719353416
397;0.35710716;2.6993986086924666;0.3842132;2.490949887560393
398;0.36952525;2.6150691570985654;0.3870577;2.4852511025177675
399;0.37899616;2.5548562597283317;0.38517472;2.5083535179581724
400;0.3878976;2.497792014075667;0.3832517;2.5206931494963927
401;0.35638785;2.7014713456563633;0.38734815;2.476904985997862
402;0.37011468;2.6170932263364572;0.3882195;2.48590926555851
403;0.3765685;2.5559935590342793;0.38450366;2.4957327056893317
404;0.3847906;2.5049018923126525;0.3855253;2.5144684262798047
405;0.35930505;2.686001516211673;0.38864017;2.4787354731239013
406;0.37058425;2.6013434087986225;0.3870076;2.493711861259734
407;0.37976542;2.541569101154957;0.3861062;2.5125545364095188
408;0.38894662;2.4849814029453356;0.38373247;2.5260388359360633
409;0.3602242;2.682098001165463;0.38819948;2.486159992401299
410;0.37132353;2.5990851467375253;0.3861162;2.4866968538423597
411;0.38220307;2.536614146074066;0.38417315;2.4931671789714267
412;0.38870683;2.482197698805948;0.38539508;2.5138604777658085
413;0.36182266;2.679592443930219;0.38935128;2.4762285500287553
414;0.3741508;2.593149056367557;0.38226014;2.487632760705282
415;0.38372162;2.531946784471307;0.38720793;2.494544185941453
416;0.39191377;2.479355772819056;0.38559538;2.5137303620099565
417;0.35994446;2.697406788768671;0.3877588;2.4898206550749657
418;0.37215275;2.6101540066397098;0.3864467;2.4912392688362663
419;0.38067454;2.5497424235886625;0.3863165;2.5073343428337442
420;0.3893662;2.493971222044562;0.38404295;2.50962802067084
421;0.36215234;2.6789253783957734;0.3868874;2.484483575759829
422;0.37313178;2.5950617279542985;0.3862364;2.494312041619892
423;0.38393143;2.5351236298718414;0.3856655;2.513383407534734
424;0.39191377;2.479809593361662;0.3864267;2.5289583249706094
425;0.36095348;2.6797754731019743;0.3880993;2.4913021765176797
426;0.37316176;2.595368068236524;0.38883045;2.5034629843465646
427;0.38319212;2.534299588188186;0.3876286;2.5096586337080375
428;0.39077485;2.4803144927219964;0.38423324;2.5169270040895753
429;0.35953486;2.6879331810242686;0.38831967;2.478394427947094
430;0.372902;2.6034974849132624;0.38850996;2.485935709172529
431;0.380205;2.5434628064217777;0.3870577;2.5015875704390815
432;0.38910645;2.4874538433216418;0.38619632;2.501080575087069
433;0.3592551;2.6887773171715112;0.39026272;2.4750680888332974
0;0.36433023;2.649979851739791;0.39278668;2.4454182980920347
1;0.36350104;2.652056917205186;0.3945795;2.4391217615903185
2;0.36777693;2.633243415056897;0.39513037;2.4343779263898844
3;0.36966512;2.6207719654073496;0.39562112;2.432506844820574
4;0.36963516;2.612526153969338;0.396182;2.430989851122317
5;0.3683364;2.626783443533856;0.3960618;2.4280115960504087
6;0.3702046;2.61432264406053;0.3959216;2.4268225779008987
7;0.37119365;2.603358715696408;0.39645243;2.4261358223302896
8;0.37317175;2.5954257594350048;0.3964424;2.425546345503434
9;0.369795;2.611128718651774;0.39729375;2.4223875103094388
10;0.37154332;2.59902820013978;0.39744398;2.4207563049652996
11;0.37346148;2.5901086312120833;0.39742395;2.420802752685059
12;0.37441057;2.5815334820076634;0.39722365;2.4201758603000885
13;0.37141344;2.608330430277168;0.3977645;2.416876669125179
14;0.37381116;2.5938068771606213;0.39778453;2.41632511457214
15;0.37452045;2.584544144018227;0.39774445;2.4158960199721937
16;0.37690815;2.575428416966782;0.39794478;2.415715902967526
17;0.3741808;2.595928583608564;0.3984055;2.4140808996946914
18;0.37368128;2.5863169117656817;0.39823523;2.412260551281902
19;0.3761389;2.576998758803853;0.398095;2.413230016103486
20;0.3771979;2.5673300524806733;0.39797482;2.4132734698712675
21;0.371873;2.600359411800609;0.3989163;2.410564243945929
22;0.37465033;2.5874911775369474;0.39925683;2.4099403918551667
23;0.37522978;2.5796452946675097;0.3989964;2.4090471953687156
24;0.3757293;2.5712964181095135;0.39972758;2.410422500746939
25;0.37045437;2.604441736055457;0.39913663;2.407615019232416
26;0.372912;2.5934483315938572;0.39920676;2.407700004784957
27;0.3733116;2.583733783048742;0.39835542;2.40857398784374
28;0.3748002;2.575461290681454;0.39839548;2.408440759114902
29;0.3723925;2.599900347497457;0.39857575;2.4054938746840144
30;0.37309185;2.5869595553259104;0.39894634;2.4057682301382273
31;0.37517983;2.5782236113877555;0.39887625;2.4051196163572617
32;0.37628877;2.5698123661148577;0.3982753;2.4056288192949027
33;0.37182304;2.599362905677932;0.3991166;2.4024149734345848
34;0.37432066;2.5884431774354044;0.39895636;2.4040317355519365
35;0.3752198;2.5787010802637282;0.3995673;2.404925673818954
36;0.37628877;2.56925708131717;0.39937702;2.4057316819725134
37;0.3717431;2.597997514183259;0.39988783;2.4009200032714686
38;0.37325168;2.5854089339370923;0.4000681;2.400248617467368
39;0.37426072;2.5775168570106293;0.39983773;2.4003949808647564
40;0.37723786;2.5699482829979314;0.3994872;2.4002425140127195
41;0.36859614;2.609845597420812;0.40002805;2.4001680877812377
42;0.37254235;2.5977719580121055;0.39990786;2.3987611145009775
43;0.3724225;2.5895048510997802;0.3994972;2.399724694164208
44;0.37424073;2.5802264878207155;0.3994972;2.4004806362454545
45;0.37272218;2.5954350565400577;0.3996975;2.39857407390614
46;0.37475023;2.582776725139764;0.39957735;2.4000322495580027
47;0.3752897;2.5731728662310354;0.4000581;2.398814718436707
48;0.37619886;2.5652820777405254;0.40052882;2.399825412903905
49;0.37253237;2.592890285774875;0.40001804;2.39730515687362
50;0.37476024;2.579930116453439;0.40082932;2.398385193646716
51;0.37549952;2.5724780864422887;0.40065902;2.3974724937887752
52;0.37662843;2.5650908770158773;0.40016827;2.398515968371535
53;0.3724225;2.5919207148539747;0.40096954;2.3952573263431756
54;0.37350145;2.5831874642530672;0.40098956;2.3956877295013586
55;0.3753197;2.5720798639995057;0.40083933;2.3946701901038283
56;0.3775076;2.562441492934361;0.40122992;2.3954461035521133
57;0.3725923;2.59309670138542;0.40151036;2.393841964204598
58;0.3737512;2.581268001395418;0.4010096;2.393270903536121
59;0.37545955;2.5724178165426035;0.40059894;2.39421912105492
60;0.37702805;2.565686915536671;0.40065902;2.395133572466233
61;0.3730219;2.5835565112131027;0.40034854;2.3921749509508956
62;0.37443054;2.5708935285163355;0.40012822;2.3927787514903662
